o line
v -0.7208085060119629 0.010921338573098183 1.9999051094055176
v -0.7208085060119629 0.010921338573098183 1.9999051094055176
v -0.7208085060119629 0.010921338573098183 1.9999051094055176
v -0.7207334637641907 0.014276368543505669 1.9998871088027954
v -0.7207334637641907 0.014276368543505669 1.9998871088027954
v -0.7207334637641907 0.014276368543505669 1.9998871088027954
v -0.7207334637641907 0.014276368543505669 1.9998871088027954
v -0.7207334637641907 0.014276368543505669 1.9998871088027954
v -0.7100507616996765 0.0708819180727005 1.997318983078003
v -0.7100507616996765 0.0708819180727005 1.997318983078003
v -0.7061764597892761 0.10420170426368713 1.9963876008987427
v -0.7061764597892761 0.10420170426368713 1.9963876008987427
v -0.6893942356109619 0.15377908945083618 1.992353081703186
v -0.6893942356109619 0.15377908945083618 1.992353081703186
v -0.6757651567459106 0.2034008502960205 1.9890767335891724
v -0.6757651567459106 0.2034008502960205 1.9890767335891724
v -0.6653633713722229 0.24971091747283936 1.9865760803222656
v -0.6653633713722229 0.24971091747283936 1.9865760803222656
v -0.6614647507667542 0.2861246168613434 1.9856388568878174
v -0.6614647507667542 0.2861246168613434 1.9856388568878174
v -0.6511569023132324 0.32899773120880127 1.9831608533859253
v -0.6511569023132324 0.32899773120880127 1.9831608533859253
v -0.637916624546051 0.36188381910324097 1.9799778461456299
v -0.637916624546051 0.36188381910324097 1.9799778461456299
v -0.6371904015541077 0.39816799759864807 1.9798033237457275
v -0.6371904015541077 0.39816799759864807 1.9798033237457275
v -0.636334240436554 0.4409429728984833 1.9795974493026733
v -0.636334240436554 0.4409429728984833 1.9795974493026733
v -0.6326075196266174 0.4704817533493042 1.9787015914916992
v -0.6326075196266174 0.4704817533493042 1.9787015914916992
v -0.6326075196266174 0.4704817533493042 1.9787015914916992
v -0.6159518957138062 0.5196402072906494 1.974697470664978
v -0.6159518957138062 0.5196402072906494 1.974697470664978
v -0.605900764465332 0.5523917078971863 1.9722812175750732
v -0.605900764465332 0.5523917078971863 1.9722812175750732
v -0.5894454121589661 0.5917009115219116 1.9683253765106201
v -0.5894454121589661 0.5917009115219116 1.9683253765106201
v -0.5762571692466736 0.6244539618492126 1.9651548862457275
v -0.5762571692466736 0.6244539618492126 1.9651548862457275
v -0.5631860494613647 0.6506847739219666 1.962012529373169
v -0.5631860494613647 0.6506847739219666 1.962012529373169
v -0.5533797740936279 0.6703638434410095 1.9596551656723022
v -0.5533797740936279 0.6703638434410095 1.9596551656723022
v -0.5467844009399414 0.6867436170578003 1.9580695629119873
v -0.5467844009399414 0.6867436170578003 1.9580695629119873
v -0.5402450561523438 0.6998670101165771 1.9564975500106812
v -0.5402450561523438 0.6998670101165771 1.9564975500106812
v -0.5336494445800781 0.7162473797798157 1.9549119472503662
v -0.5336494445800781 0.7162473797798157 1.9549119472503662
v -0.5270540714263916 0.7326272130012512 1.9533263444900513
v -0.5270540714263916 0.7326272130012512 1.9533263444900513
v -0.523567259311676 0.7521941661834717 1.9524881839752197
v -0.523567259311676 0.7521941661834717 1.9524881839752197
v -0.523567259311676 0.7521941661834717 1.9524881839752197
v -0.5136518478393555 0.7783766388893127 1.9501044750213623
v -0.5136518478393555 0.7783766388893127 1.9501044750213623
v -0.5133869051933289 0.7946008443832397 1.9500408172607422
v -0.5133869051933289 0.7946008443832397 1.9500408172607422
v -0.5099611282348633 0.8108857870101929 1.9492172002792358
v -0.5099611282348633 0.8108857870101929 1.9492172002792358
v -0.5064327120780945 0.8336368799209595 1.948369026184082
v -0.5064327120780945 0.8336368799209595 1.948369026184082
v -0.5030112266540527 0.8498993515968323 1.9475464820861816
v -0.5030112266540527 0.8498993515968323 1.9475464820861816
v -0.5030112266540527 0.8498993515968323 1.9475464820861816
v -0.5030112266540527 0.8498993515968323 1.9475464820861816
v -0.48005029559135437 0.90226149559021 1.9420266151428223
v -0.48005029559135437 0.90226149559021 1.9420266151428223
v -0.47025009989738464 0.9219392538070679 1.9396706819534302
v -0.47025009989738464 0.9219392538070679 1.9396706819534302
v -0.46371525526046753 0.9350605607032776 1.9380996227264404
v -0.46371525526046753 0.9350605607032776 1.9380996227264404
v -0.45713213086128235 0.951409101486206 1.9365171194076538
v -0.45713213086128235 0.951409101486206 1.9365171194076538
v -0.4538172781467438 0.9611949920654297 1.9357202053070068
v -0.4538172781467438 0.9611949920654297 1.9357202053070068
v -0.44728097319602966 0.9743198156356812 1.934148907661438
v -0.44728097319602966 0.9743198156356812 1.934148907661438
v -0.4440123736858368 0.9808830618858337 1.9333630800247192
v -0.4440123736858368 0.9808830618858337 1.9333630800247192
v -0.4407435357570648 0.9874468445777893 1.9325772523880005
v -0.4406980872154236 0.9906678199768066 1.9325662851333618
v -0.437429279088974 0.997231662273407 1.931780457496643
v -0.437429279088974 0.997231662273407 1.931780457496643
v -0.4340707063674927 1.0102338790893555 1.9309730529785156
v -0.4340707063674927 1.0102338790893555 1.9309730529785156
v -0.42753303050994873 1.023362159729004 1.9294013977050781
v -0.42753303050994873 1.023362159729004 1.9294013977050781
v -0.42099422216415405 1.0364927053451538 1.9278295040130615
v -0.42099422216415405 1.0364927053451538 1.9278295040130615
v -0.4112687408924103 1.049762487411499 1.925491452217102
v -0.4112687408924103 1.049762487411499 1.925491452217102
v -0.4014539122581482 1.0694708824157715 1.9231319427490234
v -0.4014539122581482 1.0694708824157715 1.9231319427490234
v -0.3949092626571655 1.0826126337051392 1.9215586185455322
v -0.3949092626571655 1.0826126337051392 1.9215586185455322
v -0.38832345604896545 1.098968267440796 1.9199753999710083
v -0.38832345604896545 1.098968267440796 1.9199753999710083
v -0.38181665539741516 1.1089028120040894 1.918411135673523
v -0.38181665539741516 1.1089028120040894 1.918411135673523
v -0.38181665539741516 1.1089028120040894 1.918411135673523
v -0.37203261256217957 1.1254167556762695 1.9160590171813965
v -0.37203261256217957 1.1254167556762695 1.9160590171813965
v -0.36871951818466187 1.1352020502090454 1.9152625799179077
v -0.3686434328556061 1.1416183710098267 1.9152443408966064
v -0.36536914110183716 1.1481934785842896 1.9144572019577026
v -0.36536914110183716 1.1481934785842896 1.9144572019577026
v -0.3588567078113556 1.1581392288208008 1.9128916263580322
v -0.3556179106235504 1.1615103483200073 1.9121129512786865
v -0.35237815976142883 1.1648824214935303 1.9113341569900513
v -0.34913748502731323 1.1682554483413696 1.9105550050735474
v -0.34913748502731323 1.1682554483413696 1.9105550050735474
v -0.3427594304084778 1.1653802394866943 1.9090217351913452
v -0.3427594304084778 1.1653802394866943 1.9090217351913452
v -0.33647802472114563 1.1528644561767578 1.9075117111206055
v -0.33647802472114563 1.1528644561767578 1.9075117111206055
v -0.33647802472114563 1.1528644561767578 1.9075117111206055
v -0.31749898195266724 1.1216305494308472 1.9029490947723389
v -0.31749898195266724 1.1216305494308472 1.9029490947723389
v -0.30483484268188477 1.0964092016220093 1.8999046087265015
v -0.30483484268188477 1.0964092016220093 1.8999046087265015
v -0.28887906670570374 1.0712387561798096 1.8960689306259155
v -0.28887906670570374 1.0712387561798096 1.8960689306259155
v -0.27291339635849 1.0394574403762817 1.892230749130249
v -0.27291339635849 1.0394574403762817 1.892230749130249
v -0.2503851056098938 1.0012528896331787 1.8868149518966675
v -0.2503851056098938 1.0012528896331787 1.8868149518966675
v -0.22436003386974335 0.9727767109870911 1.8805584907531738
v -0.22436003386974335 0.9727767109870911 1.8805584907531738
v -0.2146649807691574 0.9468551278114319 1.878227710723877
v -0.2146649807691574 0.9468551278114319 1.878227710723877
v -0.20822083950042725 0.9240381717681885 1.8766785860061646
v -0.20822083950042725 0.9240381717681885 1.8766785860061646
v -0.20180316269397736 0.8945610523223877 1.8751357793807983
v -0.20180316269397736 0.8945610523223877 1.8751357793807983
v -0.20180316269397736 0.8945610523223877 1.8751357793807983
v -0.20180316269397736 0.8945610523223877 1.8751357793807983
v -0.19544924795627594 0.8517512083053589 1.8736082315444946
v -0.19544924795627594 0.8517512083053589 1.8736082315444946
v -0.18560810387134552 0.8321145176887512 1.8712424039840698
v -0.18560810387134552 0.8321145176887512 1.8712424039840698
v -0.18560810387134552 0.8321145176887512 1.8712424039840698
v -0.17579519748687744 0.8024399876594543 1.8688833713531494
v -0.17579519748687744 0.8024399876594543 1.8688833713531494
v -0.16591325402259827 0.7793368101119995 1.8665077686309814
v -0.16591325402259827 0.7793368101119995 1.8665077686309814
v -0.1626586616039276 0.762714684009552 1.8657253980636597
v -0.1626586616039276 0.762714684009552 1.8657253980636597
v -0.15939892828464508 0.7460663914680481 1.8649417161941528
v -0.15939892828464508 0.7460663914680481 1.8649417161941528
v -0.15939892828464508 0.7460663914680481 1.8649417161941528
v -0.15939892828464508 0.7460663914680481 1.8649417161941528
v -0.13280855119228363 0.6894898414611816 1.8585493564605713
v -0.13280855119228363 0.6894898414611816 1.8585493564605713
v -0.12281840294599533 0.659308910369873 1.8561477661132812
v -0.12281840294599533 0.659308910369873 1.8561477661132812
v -0.12281840294599533 0.659308910369873 1.8561477661132812
v -0.12281840294599533 0.659308910369873 1.8561477661132812
v -0.10281083732843399 0.5748752355575562 1.8513379096984863
v -0.10281083732843399 0.5748752355575562 1.8513379096984863
v -0.07912395149469376 0.5273049473762512 1.8456435203552246
v -0.07912395149469376 0.5273049473762512 1.8456435203552246
v -0.06892410665750504 0.5068206191062927 1.8431915044784546
v -0.06892410665750504 0.5068206191062927 1.8431915044784546
v -0.058701422065496445 0.48285043239593506 1.8407338857650757
v -0.058701422065496445 0.48285043239593506 1.8407338857650757
v -0.058701422065496445 0.48285043239593506 1.8407338857650757
v -0.03815729543566704 0.4381312429904938 1.8357951641082764
v -0.03815729543566704 0.4381312429904938 1.8357951641082764
v -0.024407239630818367 0.3897445797920227 1.8324896097183228
v -0.024407239630818367 0.3897445797920227 1.8324896097183228
v -0.01405359897762537 0.3411504626274109 1.8300005197525024
v -0.01405359897762537 0.3411504626274109 1.8300005197525024
v -0.0036499828565865755 0.3097388744354248 1.827499508857727
v -0.0036499828565865755 0.3097388744354248 1.827499508857727
v -0.00017397418559994549 0.28879162669181824 1.826663851737976
v -0.00017397418559994549 0.28879162669181824 1.826663851737976
v 0.006792031228542328 0.27123579382896423 1.8249891996383667
v 0.006792031228542328 0.27123579382896423 1.8249891996383667
v 0.006794257089495659 0.26075997948646545 1.8249887228012085
v 0.006794257089495659 0.26075997948646545 1.8249887228012085
v 0.006797227542847395 0.24678152799606323 1.8249880075454712
v 0.006797227542847395 0.24678152799606323 1.8249880075454712
v 0.010293582454323769 0.2222164124250412 1.8241474628448486
v 0.010293582454323769 0.2222164124250412 1.8241474628448486
v 0.013795637525618076 0.20110897719860077 1.823305606842041
v 0.013795637525618076 0.20110897719860077 1.823305606842041
v 0.020810017362236977 0.17284737527370453 1.8216192722320557
v 0.020810017362236977 0.17284737527370453 1.8216192722320557
v 0.020810017362236977 0.17284737527370453 1.8216192722320557
v 0.027856403961777687 0.13040362298488617 1.819925308227539
v 0.027856403961777687 0.13040362298488617 1.819925308227539
v 0.04195362702012062 0.10173821449279785 1.8165363073349
v 0.04195362702012062 0.10173821449279785 1.8165363073349
v 0.045506551861763 0.08038941770792007 1.815682291984558
v 0.045506551861763 0.08038941770792007 1.815682291984558
v 0.05259156599640846 0.062432482838630676 1.8139790296554565
v 0.05259156599640846 0.062432482838630676 1.8139790296554565
v 0.056161534041166306 0.04100415110588074 1.813120722770691
v 0.056161534041166306 0.04100415110588074 1.813120722770691
v 0.05620497092604637 0.016104798763990402 1.8131103515625
v 0.05620497092604637 0.016104798763990402 1.8131103515625
v 0.06688173115253448 -0.009241240099072456 1.8105436563491821
v 0.06688173115253448 -0.009241240099072456 1.8105436563491821
v 0.07404563575983047 -0.038100291043519974 1.808821439743042
v 0.07404563575983047 -0.038100291043519974 1.808821439743042
v 0.08119390904903412 -0.052708711475133896 1.807102918624878
v 0.08119390904903412 -0.052708711475133896 1.807102918624878
v 0.08480153232812881 -0.07077979296445847 1.806235671043396
v 0.08481094986200333 -0.07436676323413849 1.8062334060668945
v 0.08838564157485962 -0.07810962945222855 1.805374026298523
v 0.08838564157485962 -0.07810962945222855 1.805374026298523
v 0.08840528130531311 -0.08528951555490494 1.8053693771362305
v 0.08840528130531311 -0.08528951555490494 1.8053693771362305
v 0.09199371188879013 -0.09263170510530472 1.8045066595077515
v 0.09200394153594971 -0.09622542560100555 1.804504156112671
v 0.09201417118310928 -0.09981994330883026 1.8045017719268799
v 0.09201417118310928 -0.09981994330883026 1.8045017719268799
v 0.09201417118310928 -0.09981994330883026 1.8045017719268799
v 0.07420188188552856 -0.10619702935218811 1.8087838888168335
v 0.07420188188552856 -0.10619702935218811 1.8087838888168335
v 0.056416913866996765 -0.10538485646247864 1.8130593299865723
v 0.056416913866996765 -0.10538485646247864 1.8130593299865723
v 0.045773860067129135 -0.10848276317119598 1.8156179189682007
v 0.045773860067129135 -0.10848276317119598 1.8156179189682007
v 0.03514164686203003 -0.10799435526132584 1.8181740045547485
v 0.028062980622053146 -0.10766918212175369 1.819875717163086
v 0.02099420502781868 -0.11092248558998108 1.8215750455856323
v 0.01393142156302929 -0.114173024892807 1.823272943496704
v 0.006873860955238342 -0.11384500563144684 1.8249695301055908
v 0.006873860955238342 -0.11384500563144684 1.8249695301055908
v -0.0036983562167733908 -0.11335363239049911 1.827511191368103
v -0.0036983562167733908 -0.11335363239049911 1.827511191368103
v -0.01425523404031992 -0.11643301695585251 1.8300490379333496
v -0.01425523404031992 -0.11643301695585251 1.8300490379333496
v -0.021283503621816635 -0.11610446125268936 1.8317385911941528
v -0.021283503621816635 -0.11610446125268936 1.8317385911941528
v -0.03532147780060768 -0.11901333928108215 1.8351134061813354
v -0.03532147780060768 -0.11901333928108215 1.8351134061813354
v -0.03532147780060768 -0.11901333928108215 1.8351134061813354
v -0.052824027836322784 -0.11819037795066833 1.8393210172653198
v -0.052824027836322784 -0.11819037795066833 1.8393210172653198
v -0.06679259985685349 -0.11753357946872711 1.8426790237426758
v -0.07028010487556458 -0.11736959964036942 1.8435174226760864
v -0.07376575469970703 -0.11720570921897888 1.8443554639816284
v -0.07376575469970703 -0.11720570921897888 1.8443554639816284
v -0.08073151856660843 -0.11687818169593811 1.8460299968719482
v -0.08421162515878677 -0.11671454459428787 1.8468666076660156
v -0.08768988400697708 -0.1165510043501854 1.8477027416229248
v -0.08768988400697708 -0.1165510043501854 1.8477027416229248
v -0.09464088082313538 -0.11622416973114014 1.8493738174438477
v -0.09464088082313538 -0.11622416973114014 1.8493738174438477
v -0.09464088082313538 -0.11622416973114014 1.8493738174438477
v -0.09808134287595749 -0.10542032122612 1.850200891494751
v -0.09808134287595749 -0.10542032122612 1.850200891494751
v -0.10150659829378128 -0.09108728915452957 1.8510243892669678
v -0.10150659829378128 -0.09108728915452957 1.8510243892669678
v -0.10146213322877884 -0.07692700624465942 1.8510136604309082
v -0.10146213322877884 -0.07692700624465942 1.8510136604309082
v -0.10484668612480164 -0.05203038454055786 1.8518272638320923
v -0.10484668612480164 -0.05203038454055786 1.8518272638320923
v -0.10824793577194214 -0.03423814848065376 1.852644920349121
v -0.10824793577194214 -0.03423814848065376 1.852644920349121
v -0.11166806519031525 -0.023521367460489273 1.8534672260284424
v -0.11166806519031525 -0.023521367460489273 1.8534672260284424
v -0.11507158726453781 -0.009296813048422337 1.8542853593826294
v -0.11507158726453781 -0.009296813048422337 1.8542853593826294
v -0.1184832751750946 0.0013913934817537665 1.8551055192947388
v -0.1184832751750946 0.0013913934817537665 1.8551055192947388
v -0.12186435610055923 0.01909259706735611 1.8559184074401855
v -0.12186435610055923 0.01909259706735611 1.8559184074401855
v -0.12869417667388916 0.033380355685949326 1.8575602769851685
v -0.12869417667388916 0.033380355685949326 1.8575602769851685
v -0.1286381334066391 0.04740268737077713 1.8575468063354492
v -0.1286381334066391 0.04740268737077713 1.8575468063354492
v -0.1285681575536728 0.06491343677043915 1.8575299978256226
v -0.1285681575536728 0.06491343677043915 1.8575299978256226
v -0.1285681575536728 0.06491343677043915 1.8575299978256226
v -0.1318744719028473 0.09649080038070679 1.8583247661590576
v -0.1318744719028473 0.09649080038070679 1.8583247661590576
v -0.13178853690624237 0.11743196845054626 1.8583041429519653
v -0.13178853690624237 0.11743196845054626 1.8583041429519653
v -0.1316741406917572 0.1453111171722412 1.858276605606079
v -0.1316741406917572 0.1453111171722412 1.858276605606079
v -0.13157419860363007 0.16966569423675537 1.8582526445388794
v -0.13157419860363007 0.16966569423675537 1.8582526445388794
v -0.1315029114484787 0.18703919649124146 1.858235478401184
v -0.1315029114484787 0.18703919649124146 1.858235478401184
v -0.1348651945590973 0.20100270211696625 1.859043836593628
v -0.1348651945590973 0.20100270211696625 1.859043836593628
v -0.1382228136062622 0.21494680643081665 1.8598510026931763
v -0.1382228136062622 0.21494680643081665 1.8598510026931763
v -0.13813312351703644 0.23572316765785217 1.8598294258117676
v -0.13813312351703644 0.23572316765785217 1.8598294258117676
v -0.13808831572532654 0.2461012452840805 1.8598185777664185
v -0.13808831572532654 0.2461012452840805 1.8598185777664185
v -0.14484581351280212 0.26005351543426514 1.8614431619644165
v -0.14484581351280212 0.26005351543426514 1.8614431619644165
v -0.144767627120018 0.2773113250732422 1.8614243268966675
v -0.144767627120018 0.2773113250732422 1.8614243268966675
v -0.144767627120018 0.2773113250732422 1.8614243268966675
v -0.1514596790075302 0.3015444576740265 1.8630331754684448
v -0.1514596790075302 0.3015444576740265 1.8630331754684448
v -0.1581687331199646 0.31884297728538513 1.8646459579467773
v -0.1581687331199646 0.31884297728538513 1.8646459579467773
v -0.16149185597896576 0.3326292932033539 1.8654448986053467
v -0.16149185597896576 0.3326292932033539 1.8654448986053467
v -0.1681966781616211 0.3464365005493164 1.8670567274093628
v -0.1681966781616211 0.3464365005493164 1.8670567274093628
v -0.17147059738636017 0.36702924966812134 1.867843747138977
v -0.1748136579990387 0.37390702962875366 1.8686474561691284
v -0.1747761219739914 0.38074737787246704 1.8686383962631226
v -0.17815354466438293 0.3807782828807831 1.869450330734253
v -0.1815292090177536 0.3808091878890991 1.8702619075775146
v -0.1815292090177536 0.3808091878890991 1.8702619075775146
v -0.1882753074169159 0.3808709681034088 1.8718836307525635
v -0.19501440227031708 0.38093265891075134 1.8735036849975586
v -0.19501440227031708 0.38093265891075134 1.8735036849975586
v -0.20174653828144073 0.3809942901134491 1.8751220703125
v -0.20174653828144073 0.3809942901134491 1.8751220703125
v -0.21854639053344727 0.381148099899292 1.8791608810424805
v -0.21854639053344727 0.381148099899292 1.8791608810424805
v -0.23195505142211914 0.3812708556652069 1.8823843002319336
v -0.23195505142211914 0.3812708556652069 1.8823843002319336
v -0.24533604085445404 0.3813933730125427 1.8856010437011719
v -0.24533604085445404 0.3813933730125427 1.8856010437011719
v -0.26535582542419434 0.38157665729522705 1.8904138803482056
v -0.27534252405166626 0.3816680908203125 1.8928146362304688
v -0.27534252405166626 0.3816680908203125 1.8928146362304688
v -0.29533258080482483 0.37507370114326477 1.8976203203201294
v -0.29533258080482483 0.37507370114326477 1.8976203203201294
v -0.29533258080482483 0.37507370114326477 1.8976203203201294
v -0.3118951618671417 0.37523403763771057 1.9016019105911255
v -0.3118951618671417 0.37523403763771057 1.9016019105911255
v -0.32845011353492737 0.3720132112503052 1.9055818319320679
v -0.32845011353492737 0.3720132112503052 1.9055818319320679
v -0.341673344373703 0.36876630783081055 1.908760666847229
v -0.341673344373703 0.36876630783081055 1.908760666847229
v -0.3548347055912018 0.3689006268978119 1.9119247198104858
v -0.3548347055912018 0.3689006268978119 1.9119247198104858
v -0.37128785252571106 0.3656972348690033 1.9158800840377808
v -0.37128785252571106 0.3656972348690033 1.9158800840377808
v -0.38766148686408997 0.3658686578273773 1.919816255569458
v -0.38766148686408997 0.3658686578273773 1.919816255569458
v -0.39750760793685913 0.36260655522346497 1.9221832752227783
v -0.39750760793685913 0.36260655522346497 1.9221832752227783
v -0.4072977602481842 0.3627116084098816 1.9245368242263794
v -0.4072977602481842 0.3627116084098816 1.9245368242263794
v -0.4171169102191925 0.35945627093315125 1.926897406578064
v -0.4171169102191925 0.35945627093315125 1.926897406578064
v -0.43017393350601196 0.35624176263809204 1.9300363063812256
v -0.4334230422973633 0.35627835988998413 1.9308173656463623
v -0.4334230422973633 0.35627835988998413 1.9308173656463623
v -0.4334230422973633 0.35627835988998413 1.9308173656463623
v -0.449738472700119 0.3497540354728699 1.934739589691162
v -0.449738472700119 0.3497540354728699 1.934739589691162
v -0.4626880884170532 0.3499066233634949 1.9378527402877808
v -0.4626880884170532 0.3499066233634949 1.9378527402877808
v -0.4724326729774475 0.3466723561286926 1.9401953220367432
v -0.47888845205307007 0.3467501103878021 1.9417473077774048
v -0.47888845205307007 0.3467501103878021 1.9417473077774048
v -0.4853377044200897 0.34682780504226685 1.9432977437973022
v -0.4853377044200897 0.34682780504226685 1.9432977437973022
v -0.4949992895126343 0.3469441831111908 1.9456204175949097
v -0.4949992895126343 0.3469441831111908 1.9456204175949097
v -0.5046461820602417 0.3470604121685028 1.9479395151138306
v -0.5078585743904114 0.34709909558296204 1.9487117528915405
v -0.5110693573951721 0.34713777899742126 1.9494836330413818
v -0.5110693573951721 0.34713777899742126 1.9494836330413818
v -0.5206918716430664 0.3472537100315094 1.9517968893051147
v -0.5206918716430664 0.3472537100315094 1.9517968893051147
v -0.5302998423576355 0.3473694324493408 1.9541066884994507
v -0.5334993004798889 0.3474079966545105 1.9548758268356323
v -0.5366970896720886 0.3474465012550354 1.9556446075439453
v -0.5366970896720886 0.3474465012550354 1.9556446075439453
v -0.5399496555328369 0.34415361285209656 1.9564265012741089
v -0.5399496555328369 0.34415361285209656 1.9564265012741089
v -0.5466232299804688 0.327573299407959 1.9580308198928833
v -0.5466232299804688 0.327573299407959 1.9580308198928833
v -0.5501038432121277 0.31094467639923096 1.9588675498962402
v -0.5501038432121277 0.31094467639923096 1.9588675498962402
v -0.5599711537361145 0.29441091418266296 1.9612396955490112
v -0.5599711537361145 0.29441091418266296 1.9612396955490112
v -0.5603809952735901 0.27103403210639954 1.9613381624221802
v -0.5603809952735901 0.27103403210639954 1.9613381624221802
v -0.5638679265975952 0.2543773651123047 1.9621764421463013
v -0.5638679265975952 0.2543773651123047 1.9621764421463013
v -0.5739195942878723 0.22780431807041168 1.9645929336547852
v -0.5739195942878723 0.22780431807041168 1.9645929336547852
v -0.5741598010063171 0.21440796554088593 1.9646506309509277
v -0.5741598010063171 0.21440796554088593 1.9646506309509277
v -0.5775927305221558 0.2010759860277176 1.9654759168624878
v -0.5775927305221558 0.2010759860277176 1.9654759168624878
v -0.5809659361839294 0.19109363853931427 1.9662868976593018
v -0.5809659361839294 0.19109363853931427 1.9662868976593018
v -0.581087589263916 0.18438485264778137 1.9663161039352417
v -0.581087589263916 0.18438485264778137 1.9663161039352417
v -0.5813310146331787 0.17095884680747986 1.9663746356964111
v -0.5813310146331787 0.17095884680747986 1.9663746356964111
v -0.5815137028694153 0.16088195145130157 1.9664185047149658
v -0.5815137028694153 0.16088195145130157 1.9664185047149658
v -0.5816965103149414 0.1507987380027771 1.96646249294281
v -0.5816965103149414 0.1507987380027771 1.96646249294281
v -0.5818794965744019 0.14070916175842285 1.9665064811706543
v -0.5818794965744019 0.14070916175842285 1.9665064811706543
v -0.5821235775947571 0.12724652886390686 1.9665651321411133
v -0.5821235775947571 0.12724652886390686 1.9665651321411133
v -0.5822457075119019 0.12051098048686981 1.9665944576263428
v -0.5822457075119019 0.12051098048686981 1.9665944576263428
v -0.582490086555481 0.10703139752149582 1.9666532278060913
v -0.582490086555481 0.10703139752149582 1.9666532278060913
v -0.5826734900474548 0.09691428393125534 1.966697335243225
v -0.5826734900474548 0.09691428393125534 1.966697335243225
v -0.5861802697181702 0.08014478534460068 1.9675403833389282
v -0.5861802697181702 0.08014478534460068 1.9675403833389282
v -0.5896888971328735 0.06336618959903717 1.9683839082717896
v -0.5896888971328735 0.06336618959903717 1.9683839082717896
v -0.5963985323905945 0.04669354110956192 1.9699968099594116
v -0.5963985323905945 0.04669354110956192 1.9699968099594116
v -0.5963985323905945 0.04669354110956192 1.9699968099594116
v -0.5968373417854309 0.023011932149529457 1.970102310180664
v -0.5968373417854309 0.023011932149529457 1.970102310180664
v -0.6068777441978455 -0.00032311430550180376 1.9725160598754883
v -0.6068777441978455 -0.00032311430550180376 1.9725160598754883
v -0.6103954911231995 -0.017140336334705353 1.9733617305755615
v -0.6103954911231995 -0.017140336334705353 1.9733617305755615
v -0.6172419786453247 -0.040617380291223526 1.9750076532363892
v -0.6172419786453247 -0.040617380291223526 1.9750076532363892
v -0.6207643151283264 -0.05745396018028259 1.9758543968200684
v -0.6207643151283264 -0.05745396018028259 1.9758543968200684
v -0.6241572499275208 -0.06750260293483734 1.9766701459884644
v -0.6241572499275208 -0.06750260293483734 1.9766701459884644
v -0.6274845600128174 -0.07415374368429184 1.97747004032135
v -0.6275506019592285 -0.07755248248577118 1.9774858951568604
v -0.6275506019592285 -0.07755248248577118 1.9774858951568604
v -0.6339383125305176 -0.07725905627012253 1.979021430015564
v -0.6339383125305176 -0.07725905627012253 1.979021430015564
v -0.6403195858001709 -0.07696592062711716 1.980555534362793
v -0.6435077786445618 -0.07681946456432343 1.981321930885315
v -0.6435077786445618 -0.07681946456432343 1.981321930885315
v -0.653062641620636 -0.07638054341077805 1.983618974685669
v -0.653062641620636 -0.07638054341077805 1.983618974685669
v -0.6594244837760925 -0.0760883018374443 1.9851484298706055
v -0.6594244837760925 -0.0760883018374443 1.9851484298706055
v -0.6753008961677551 -0.07535899430513382 1.9889650344848633
v -0.6753008961677551 -0.07535899430513382 1.9889650344848633
v -0.6753008961677551 -0.07535899430513382 1.9889650344848633
v -0.7006196975708008 -0.07419592887163162 1.9950517416000366
v -0.7006196975708008 -0.07419592887163162 1.9950517416000366
v -0.7100878953933716 -0.0737609937787056 1.9973279237747192
v -0.7132408022880554 -0.073616161942482 1.998085856437683
v -0.7163920998573303 -0.07347140461206436 1.9988434314727783
v -0.7226898670196533 -0.07318209856748581 2.0003573894500732
v -0.7258363962173462 -0.07303756475448608 2.0011138916015625
v -0.7258363962173462 -0.07303756475448608 2.0011138916015625
v -0.7321246862411499 -0.07274869829416275 2.0026254653930664
v -0.7351897954940796 -0.06923527270555496 2.0033624172210693
v -0.7351897954940796 -0.06923527270555496 2.0033624172210693
v -0.7414679527282715 -0.06894856691360474 2.0048716068267822
v -0.7414679527282715 -0.06894856691360474 2.0048716068267822
v -0.7507951259613037 -0.06515496969223022 2.0071139335632324
v -0.7507951259613037 -0.06515496969223022 2.0071139335632324
v -0.7507951259613037 -0.06515496969223022 2.0071139335632324
v -0.7633123397827148 -0.06458674371242523 2.0101230144500732
v -0.763232946395874 -0.06122679263353348 2.010103940963745
v -0.7631535530090332 -0.057867541909217834 2.010084867477417
v -0.7599481344223022 -0.05464835837483406 2.0093142986297607
v -0.7599481344223022 -0.05464835837483406 2.0093142986297607
v -0.7504043579101562 -0.048345014452934265 2.0070199966430664
v -0.7504043579101562 -0.048345014452934265 2.0070199966430664
v -0.7439844012260437 -0.04189842939376831 2.005476713180542
v -0.7407730221748352 -0.03867371007800102 2.004704713821411
v -0.7375606298446655 -0.035448040813207626 2.003932476043701
v -0.7374070286750793 -0.028727680444717407 2.0038955211639404
v -0.7342708706855774 -0.028860729187726974 2.0031416416168213
v -0.7341943979263306 -0.025500738993287086 2.0031230449676514
v -0.7341179251670837 -0.02214144915342331 2.0031046867370605
v -0.7309808135032654 -0.022272847592830658 2.0023505687713623
v -0.730828583240509 -0.015554647892713547 2.0023140907287598
v -0.730828583240509 -0.015554647892713547 2.0023140907287598
v -0.7244752645492554 -0.012454437091946602 2.000786542892456
v -0.7243998050689697 -0.009095368906855583 2.0007684230804443
v -0.7243243455886841 -0.005737001542001963 2.0007503032684326
v -0.7211840152740479 -0.005864300765097141 1.999995470046997
v -0.7211089134216309 -0.002505773911252618 1.9999773502349854
v -0.7210337519645691 0.000852053111884743 1.9999593496322632
v -0.7178924679756165 0.0007264070445671678 1.999204158782959
v -0.7178176641464233 0.004084392450749874 1.9991861581802368
v -0.7114567756652832 0.007193631026893854 1.9976569414138794
v -0.7082375288009644 0.010428674519062042 1.9968830347061157
v -0.7082375288009644 0.010428674519062042 1.9968830347061157
v -0.7049437761306763 0.017023293301463127 1.9960912466049194
v -0.7017961144447327 0.01690162718296051 1.995334506034851
l 1 2 3 4 5 6 7 8 9 10 11 12 13 14 15 16 17 18 19 20 21 22 23 24 25 26 27 28 29 30 31 32 33 34 35 36 37 38 39 40 41 42 43 44 45 46 47 48 49 50 51 52 53 54 55 56 57 58 59 60 61 62 63 64 65 66 67 68 69 70 71 72 73 74 75 76 77 78 79 80 81 82 83 84 85 86 87 88 89 90 91 92 93 94 95 96 97 98 99 100 101 102 103 104 105 106 107 108 109 110 111 112 113 114 115 116 117 118 119 120 121 122 123 124 125 126 127 128 129 130 131 132 133 134 135 136 137 138 139 140 141 142 143 144 145 146 147 148 149 150 151 152 153 154 155 156 157 158 159 160 161 162 163 164 165 166 167 168 169 170 171 172 173 174 175 176 177 178 179 180 181 182 183 184 185 186 187 188 189 190 191 192 193 194 195 196 197 198 199 200 201 202 203 204 205 206 207 208 209 210 211 212 213 214 215 216 217 218 219 220 221 222 223 224 225 226 227 228 229 230 231 232 233 234 235 236 237 238 239 240 241 242 243 244 245 246 247 248 249 250 251 252 253 254 255 256 257 258 259 260 261 262 263 264 265 266 267 268 269 270 271 272 273 274 275 276 277 278 279 280 281 282 283 284 285 286 287 288 289 290 291 292 293 294 295 296 297 298 299 300 301 302 303 304 305 306 307 308 309 310 311 312 313 314 315 316 317 318 319 320 321 322 323 324 325 326 327 328 329 330 331 332 333 334 335 336 337 338 339 340 341 342 343 344 345 346 347 348 349 350 351 352 353 354 355 356 357 358 359 360 361 362 363 364 365 366 367 368 369 370 371 372 373 374 375 376 377 378 379 380 381 382 383 384 385 386 387 388 389 390 391 392 393 394 395 396 397 398 399 400 401 402 403 404 405 406 407 408 409 410 411 412 413 414 415 416 417 418 419 420 421 422 423 424 425 426 427 428 429 430 431 432 433 434 435 436 437 438 439 440 441 442 443 444 445 446 447 448 449 450 451 452 453 454 455 456 457 458 459 460 461 462 463 464 465 466 467 468 469 470 471 472 473 474 475 476 477 478 479 480 481 482 483 484 485 486 487 488 489 490 491 492 493 
o line
v -0.4935523569583893 0.8338191509246826 1.9467021226882935
v -0.4935523569583893 0.8338191509246826 1.9467021226882935
v -0.4935523569583893 0.8338191509246826 1.9467021226882935
v -0.49350085854530334 0.8370568752288818 1.9466935396194458
v -0.49024730920791626 0.8403540253639221 1.94614577293396
v -0.48704415559768677 0.8404141664505005 1.9456067085266113
v -0.48383983969688416 0.8404742479324341 1.945067286491394
v -0.4774278402328491 0.8405945301055908 1.9439879655838013
v -0.4774278402328491 0.8405945301055908 1.9439879655838013
v -0.4678013324737549 0.8407751321792603 1.9423675537109375
v -0.4678013324737549 0.8407751321792603 1.9423675537109375
v -0.45816463232040405 0.840955913066864 1.94074547290802
v -0.45816463232040405 0.840955913066864 1.94074547290802
v -0.44529977440834045 0.8411972522735596 1.93858003616333
v -0.44529977440834045 0.8411972522735596 1.93858003616333
v -0.44529977440834045 0.8411972522735596 1.93858003616333
v -0.41305777430534363 0.8418021202087402 1.9331527948379517
v -0.40336287021636963 0.8419840335845947 1.931520938873291
v -0.40336287021636963 0.8419840335845947 1.931520938873291
v -0.40336287021636963 0.8419840335845947 1.931520938873291
v -0.3709718883037567 0.8425916433334351 1.926068663597107
v -0.3709718883037567 0.8425916433334351 1.926068663597107
v -0.34822961688041687 0.8430182933807373 1.9222406148910522
v -0.34822961688041687 0.8430182933807373 1.9222406148910522
v -0.3384655714035034 0.8432014584541321 1.9205970764160156
v -0.3384655714035034 0.8432014584541321 1.9205970764160156
v -0.31237709522247314 0.8436908721923828 1.916205644607544
v -0.3058433532714844 0.8438134789466858 1.9151058197021484
v -0.29930493235588074 0.8439361453056335 1.9140052795410156
v -0.29930493235588074 0.8439361453056335 1.9140052795410156
v -0.2960027754306793 0.8472687602043152 1.9134494066238403
v -0.2960027754306793 0.8472687602043152 1.9134494066238403
v -0.2829086184501648 0.8475167155265808 1.911245346069336
v -0.2829086184501648 0.8475167155265808 1.911245346069336
v -0.2664864659309387 0.8511029481887817 1.9084811210632324
v -0.2664864659309387 0.8511029481887817 1.9084811210632324
v -0.25003841519355774 0.8546947836875916 1.9057124853134155
v -0.25003841519355774 0.8546947836875916 1.9057124853134155
v -0.25003841519355774 0.8546947836875916 1.9057124853134155
v -0.2302713841199875 0.8583564758300781 1.9023851156234741
v -0.2302713841199875 0.8583564758300781 1.9023851156234741
v -0.21046604216098785 0.862025260925293 1.8990514278411865
v -0.21046604216098785 0.862025260925293 1.8990514278411865
v -0.20053833723068237 0.8655045032501221 1.8973803520202637
v -0.20053833723068237 0.8655045032501221 1.8973803520202637
v -0.19390825927257538 0.8689205646514893 1.8962643146514893
v -0.19390825927257538 0.8689205646514893 1.8962643146514893
v -0.19390825927257538 0.8689205646514893 1.8962643146514893
v -0.19399048388004303 0.8557762503623962 1.8962781429290771
v -0.19399048388004303 0.8557762503623962 1.8962781429290771
v -0.19407279789447784 0.8426207900047302 1.896291971206665
v -0.19407279789447784 0.8426207900047302 1.896291971206665
v -0.19419637322425842 0.8228665590286255 1.8963128328323364
v -0.19419637322425842 0.8228665590286255 1.8963128328323364
v -0.20420905947685242 0.8095163702964783 1.8979982137680054
v -0.20420905947685242 0.8095163702964783 1.8979982137680054
v -0.2042957842350006 0.7963287830352783 1.8980127573013306
v -0.2042957842350006 0.7963287830352783 1.8980127573013306
v -0.2042957842350006 0.7963287830352783 1.8980127573013306
v -0.2143786996603012 0.7730762362480164 1.8997100591659546
v -0.2143786996603012 0.7730762362480164 1.8997100591659546
v -0.22106380760669708 0.7630742192268372 1.9008352756500244
v -0.22106380760669708 0.7630742192268372 1.9008352756500244
v -0.2244657427072525 0.7498142123222351 1.9014079570770264
v -0.2244657427072525 0.7498142123222351 1.9014079570770264
v -0.22784513235092163 0.7398542165756226 1.9019767045974731
v -0.22784513235092163 0.7398542165756226 1.9019767045974731
v -0.22789354622364044 0.7332406044006348 1.9019849300384521
v -0.22789354622364044 0.7332406044006348 1.9019849300384521
v -0.23470650613307953 0.7066836357116699 1.9031317234039307
v -0.23470650613307953 0.7066836357116699 1.9031317234039307
v -0.2448342889547348 0.6800681948661804 1.9048365354537964
v -0.2448342889547348 0.6800681948661804 1.9048365354537964
v -0.24827323853969574 0.6634508371353149 1.9054152965545654
v -0.24827323853969574 0.6634508371353149 1.9054152965545654
v -0.2616629898548126 0.6434223651885986 1.907669186592102
v -0.2616629898548126 0.6434223651885986 1.907669186592102
v -0.2650523781776428 0.6334332823753357 1.908239722251892
v -0.2650523781776428 0.6334332823753357 1.908239722251892
v -0.26844272017478943 0.6234415173530579 1.9088103771209717
v -0.26844272017478943 0.6234415173530579 1.9088103771209717
v -0.26844272017478943 0.6234415173530579 1.9088103771209717
v -0.26855701208114624 0.6101412177085876 1.9088295698165894
v -0.2686142027378082 0.6034867763519287 1.908839225769043
v -0.2686142027378082 0.6034867763519287 1.908839225769043
v -0.268642783164978 0.6001585125923157 1.9088441133499146
v -0.268642783164978 0.6001585125923157 1.9088441133499146
v -0.268642783164978 0.6001585125923157 1.9088441133499146
v -0.2754020690917969 0.5834764838218689 1.9099818468093872
v -0.2754020690917969 0.5834764838218689 1.9099818468093872
v -0.27546072006225586 0.5768131017684937 1.90999174118042
v -0.27546072006225586 0.5768131017684937 1.90999174118042
v -0.2788568139076233 0.5668007135391235 1.910563349723816
v -0.2788568139076233 0.5668007135391235 1.910563349723816
v -0.28225386142730713 0.556785523891449 1.911135196685791
v -0.28225386142730713 0.556785523891449 1.911135196685791
v -0.29232603311538696 0.5400777459144592 1.9128305912017822
v -0.29232603311538696 0.5400777459144592 1.9128305912017822
v -0.29572537541389465 0.5300574898719788 1.913402795791626
v -0.2990938127040863 0.5233743786811829 1.9139697551727295
v -0.29912570118904114 0.5200344920158386 1.9139751195907593
v -0.29912570118904114 0.5200344920158386 1.9139751195907593
v -0.29912570118904114 0.5200344920158386 1.9139751195907593
v -0.2992532551288605 0.5066676735877991 1.9139965772628784
v -0.2992532551288605 0.5066676735877991 1.9139965772628784
v -0.3025914430618286 0.5033236145973206 1.9145585298538208
v -0.3025914430618286 0.5033236145973206 1.9145585298538208
v -0.3025914430618286 0.5033236145973206 1.9145585298538208
v -0.30605965852737427 0.48660099506378174 1.915142297744751
v -0.30939826369285583 0.4832574427127838 1.9157042503356934
v -0.30939826369285583 0.4832574427127838 1.9157042503356934
v -0.3127364218235016 0.47991442680358887 1.9162662029266357
v -0.3127697706222534 0.47656765580177307 1.9162718057632446
v -0.31610774993896484 0.4732249975204468 1.9168336391448975
v -0.3161414563655853 0.4698774218559265 1.916839361190796
v -0.3161414563655853 0.4698774218559265 1.916839361190796
v -0.31941118836402893 0.4732298254966736 1.9173897504806519
v -0.31941118836402893 0.4732298254966736 1.9173897504806519
v -0.3226790428161621 0.47658032178878784 1.9179397821426392
v -0.3226790428161621 0.47658032178878784 1.9179397821426392
v -0.33558884263038635 0.503317654132843 1.9201128482818604
v -0.33558884263038635 0.503317654132843 1.9201128482818604
v -0.34845811128616333 0.5299710631370544 1.9222790002822876
v -0.34845811128616333 0.5299710631370544 1.9222790002822876
v -0.354839950799942 0.5465912222862244 1.9233533143997192
v -0.354839950799942 0.5465912222862244 1.9233533143997192
v -0.36448803544044495 0.5631704330444336 1.9249773025512695
v -0.36448803544044495 0.5631704330444336 1.9249773025512695
v -0.36760857701301575 0.5764275789260864 1.9255025386810303
v -0.36760857701301575 0.5764275789260864 1.9255025386810303
v -0.36760857701301575 0.5764275789260864 1.9255025386810303
v -0.3868657052516937 0.6061263680458069 1.9287440776824951
v -0.3868657052516937 0.6061263680458069 1.9287440776824951
v -0.3964441418647766 0.6225811243057251 1.9303563833236694
v -0.3964441418647766 0.6225811243057251 1.9303563833236694
v -0.4026625454425812 0.6456161141395569 1.9314030408859253
v -0.4026625454425812 0.6456161141395569 1.9314030408859253
v -0.40903982520103455 0.6554411053657532 1.93247652053833
v -0.40903982520103455 0.6554411053657532 1.93247652053833
v -0.4121166169643402 0.6685706377029419 1.9329943656921387
v -0.4121166169643402 0.6685706377029419 1.9329943656921387
v -0.41523346304893494 0.6783995032310486 1.9335190057754517
v -0.41523346304893494 0.6783995032310486 1.9335190057754517
v -0.41497117280960083 0.6980986595153809 1.9334748983383179
v -0.41497117280960083 0.6980986595153809 1.9334748983383179
v -0.41803911328315735 0.7111800312995911 1.9339913129806519
v -0.41803911328315735 0.7111800312995911 1.9339913129806519
v -0.4211033880710602 0.7242457270622253 1.934507131576538
v -0.4242531657218933 0.730752170085907 1.9350372552871704
v -0.4242531657218933 0.730752170085907 1.9350372552871704
v -0.4273556172847748 0.7405237555503845 1.9355595111846924
v -0.4273556172847748 0.7405237555503845 1.9355595111846924
v -0.43373340368270874 0.7469743490219116 1.9366331100463867
v -0.43373340368270874 0.7469743490219116 1.9366331100463867
v -0.43373340368270874 0.7469743490219116 1.9366331100463867
v -0.4401039779186249 0.7534175515174866 1.937705397605896
v -0.4401039779186249 0.7534175515174866 1.937705397605896
v -0.44328656792640686 0.7566365003585815 1.9382411241531372
v -0.44328656792640686 0.7566365003585815 1.9382411241531372
v -0.44319358468055725 0.7631621956825256 1.938225507736206
v -0.44319358468055725 0.7631621956825256 1.938225507736206
v -0.4495049715042114 0.7728488445281982 1.939287781715393
v -0.4495049715042114 0.7728488445281982 1.939287781715393
v -0.45585569739341736 0.779266357421875 1.9403568506240845
v -0.45585569739341736 0.779266357421875 1.9403568506240845
v -0.4557601809501648 0.7857779264450073 1.9403407573699951
v -0.4557601809501648 0.7857779264450073 1.9403407573699951
v -0.45893222093582153 0.7889814972877502 1.940874695777893
v -0.462102472782135 0.7921832203865051 1.9414082765579224
v -0.4620541036128998 0.7954354882240295 1.941400170326233
v -0.4652709364891052 0.7953832149505615 1.9419416189193726
v -0.46522223949432373 0.7986341714859009 1.941933512687683
v -0.46522223949432373 0.7986341714859009 1.941933512687683
v -0.4683885872364044 0.8018311262130737 1.9424664974212646
v -0.4683885872364044 0.8018311262130737 1.9424664974212646
v -0.47155317664146423 0.8050261735916138 1.9429991245269775
v -0.47792690992355347 0.8081650137901306 1.9440720081329346
v -0.4811367392539978 0.8081105351448059 1.9446122646331787
v -0.4811367392539978 0.8081105351448059 1.9446122646331787
v -0.4842948317527771 0.8113009333610535 1.9451438188552856
v -0.4875020682811737 0.8112459182739258 1.9456837177276611
v -0.49065691232681274 0.8144339323043823 1.9462147951126099
v -0.4938615560531616 0.8143784403800964 1.9467542171478271
l 494 495 496 497 498 499 500 501 502 503 504 505 506 507 508 509 510 511 512 513 514 515 516 517 518 519 520 521 522 523 524 525 526 527 528 529 530 531 532 533 534 535 536 537 538 539 540 541 542 543 544 545 546 547 548 549 550 551 552 553 554 555 556 557 558 559 560 561 562 563 564 565 566 567 568 569 570 571 572 573 574 575 576 577 578 579 580 581 582 583 584 585 586 587 588 589 590 591 592 593 594 595 596 597 598 599 600 601 602 603 604 605 606 607 608 609 610 611 612 613 614 615 616 617 618 619 620 621 622 623 624 625 626 627 628 629 630 631 632 633 634 635 636 637 638 639 640 641 642 643 644 645 646 647 648 649 650 651 652 653 654 655 656 657 658 659 660 661 662 663 664 665 666 667 668 669 670 671 672 673 674 675 676 
o line
v 0.7489439249038696 0.024990776553750038 -0.5000390410423279
v 0.7489439249038696 0.024990776553750038 -0.5000390410423279
v 0.7489439249038696 0.024990776553750038 -0.5000390410423279
v 0.7488635778427124 0.03105342574417591 -0.5000499486923218
v 0.7488635778427124 0.03105342574417591 -0.5000499486923218
v 0.7488635778427124 0.03105342574417591 -0.5000499486923218
v 0.7424529194831848 0.0673384889960289 -0.5009232759475708
v 0.7424529194831848 0.0673384889960289 -0.5009232759475708
v 0.7358908653259277 0.11568133533000946 -0.5018171668052673
v 0.7358908653259277 0.11568133533000946 -0.5018171668052673
v 0.7231817841529846 0.18201152980327606 -0.5035484433174133
v 0.7231817841529846 0.18201152980327606 -0.5035484433174133
v 0.7104190587997437 0.2542445659637451 -0.5052869915962219
v 0.7104190587997437 0.2542445659637451 -0.5052869915962219
v 0.7035958170890808 0.32635998725891113 -0.5062165260314941
v 0.7035958170890808 0.32635998725891113 -0.5062165260314941
v 0.7027697563171387 0.3923364281654358 -0.5063290596008301
v 0.7027697563171387 0.3923364281654358 -0.5063290596008301
v 0.7017959952354431 0.47010910511016846 -0.5064616799354553
v 0.7017959952354431 0.47010910511016846 -0.5064616799354553
v 0.7009741067886353 0.5357486605644226 -0.5065736770629883
v 0.7009741067886353 0.5357486605644226 -0.5065736770629883
v 0.694342315196991 0.5953015685081482 -0.5074770450592041
v 0.694342315196991 0.5953015685081482 -0.5074770450592041
v 0.6881614327430725 0.6191024780273438 -0.5083190202713013
v 0.6881614327430725 0.6191024780273438 -0.5083190202713013
v 0.6756664514541626 0.678533673286438 -0.5100211501121521
v 0.6756664514541626 0.678533673286438 -0.5100211501121521
v 0.6756664514541626 0.678533673286438 -0.5100211501121521
v 0.6623468995094299 0.8088523745536804 -0.5118355751037598
v 0.6623468995094299 0.8088523745536804 -0.5118355751037598
v 0.6558464765548706 0.8620208501815796 -0.5127211213111877
v 0.6558464765548706 0.8620208501815796 -0.5127211213111877
v 0.6554297804832458 0.8973802924156189 -0.5127778649330139
v 0.6554297804832458 0.8973802924156189 -0.5127778649330139
v 0.6550136804580688 0.9326949119567871 -0.5128345489501953
v 0.6550136804580688 0.9326949119567871 -0.5128345489501953
v 0.654667317867279 0.962089478969574 -0.5128817558288574
v 0.654667317867279 0.962089478969574 -0.5128817558288574
v 0.6542521715164185 0.9973219633102417 -0.5129382610321045
v 0.6542521715164185 0.9973219633102417 -0.5129382610321045
v 0.6536993980407715 1.0442291498184204 -0.5130136013031006
v 0.6536993980407715 1.0442291498184204 -0.5130136013031006
v 0.6531476378440857 1.0910571813583374 -0.5130887627601624
v 0.6531476378440857 1.0910571813583374 -0.5130887627601624
v 0.6523216962814331 1.1611511707305908 -0.5132012367248535
v 0.6523216962814331 1.1611511707305908 -0.5132012367248535
v 0.6516349911689758 1.219427466392517 -0.5132948160171509
v 0.6516349911689758 1.219427466392517 -0.5132948160171509
v 0.6511551737785339 1.260148048400879 -0.5133601427078247
v 0.6511551737785339 1.260148048400879 -0.5133601427078247
v 0.6507444381713867 1.2950036525726318 -0.5134161114692688
v 0.6507444381713867 1.2950036525726318 -0.5134161114692688
v 0.6503342390060425 1.3298152685165405 -0.5134720206260681
v 0.6503342390060425 1.3298152685165405 -0.5134720206260681
v 0.6503342390060425 1.3298152685165405 -0.5134720206260681
v 0.6497198939323425 1.3819504976272583 -0.5135557055473328
v 0.6497198939323425 1.3819504976272583 -0.5135557055473328
v 0.6493110060691833 1.4166526794433594 -0.513611376285553
v 0.6493110060691833 1.4166526794433594 -0.513611376285553
v 0.6547790765762329 1.4454021453857422 -0.5128664970397949
v 0.6547790765762329 1.4454021453857422 -0.5128664970397949
v 0.6602398753166199 1.4741132259368896 -0.512122631072998
v 0.6602398753166199 1.4741132259368896 -0.512122631072998
v 0.6656933426856995 1.5027859210968018 -0.5113797187805176
v 0.6656933426856995 1.5027859210968018 -0.5113797187805176
v 0.6711395978927612 1.5314205884933472 -0.5106378197669983
v 0.6711395978927612 1.5314205884933472 -0.5106378197669983
v 0.6708588600158691 1.5544214248657227 -0.5106760859489441
v 0.6708588600158691 1.5544214248657227 -0.5106760859489441
v 0.6820815801620483 1.5828357934951782 -0.5091472864151001
v 0.682010293006897 1.5885753631591797 -0.5091569423675537
v 0.6818678379058838 1.600050926208496 -0.5091763734817505
v 0.6875783801078796 1.6056289672851562 -0.5083984732627869
v 0.6875783801078796 1.6056289672851562 -0.5083984732627869
v 0.693286120891571 1.6112040281295776 -0.5076209306716919
v 0.693286120891571 1.6112040281295776 -0.5076209306716919
v 0.7046931385993958 1.6223461627960205 -0.5060670375823975
v 0.7046931385993958 1.6223461627960205 -0.5060670375823975
v 0.7217825055122375 1.6390386819839478 -0.503739058971405
v 0.7217825055122375 1.6390386819839478 -0.503739058971405
v 0.7386926412582397 1.6671372652053833 -0.5014355182647705
v 0.7386926412582397 1.6671372652053833 -0.5014355182647705
v 0.7612424492835999 1.7007169723510742 -0.4983636736869812
v 0.7612424492835999 1.7007169723510742 -0.4983636736869812
v 0.7781599164009094 1.7230008840560913 -0.4960591197013855
v 0.7781599164009094 1.7230008840560913 -0.4960591197013855
v 0.7893950939178467 1.739733338356018 -0.4945286214351654
v 0.7893950939178467 1.739733338356018 -0.4945286214351654
v 0.8006168603897095 1.7564457654953003 -0.49299994111061096
v 0.8006168603897095 1.7564457654953003 -0.49299994111061096
v 0.8062645792961121 1.7619524002075195 -0.4922305941581726
v 0.8119094967842102 1.767456293106079 -0.4914616048336029
v 0.8176364898681641 1.7672761678695679 -0.4906814694404602
v 0.8176364898681641 1.7672761678695679 -0.4906814694404602
v 0.829085648059845 1.766916275024414 -0.48912182450294495
v 0.829085648059845 1.766916275024414 -0.48912182450294495
v 0.829085648059845 1.766916275024414 -0.48912182450294495
v 0.8633044958114624 1.771512508392334 -0.48446041345596313
v 0.8633044958114624 1.771512508392334 -0.48446041345596313
v 0.8975510597229004 1.7704309225082397 -0.4797952175140381
v 0.8975510597229004 1.7704309225082397 -0.4797952175140381
v 0.9715523719787598 1.7680938243865967 -0.4697144627571106
v 0.9715523719787598 1.7680938243865967 -0.4697144627571106
v 1.0509421825408936 1.765586495399475 -0.45889970660209656
v 1.0509421825408936 1.765586495399475 -0.45889970660209656
v 1.1412899494171143 1.7627332210540771 -0.44659221172332764
v 1.1412899494171143 1.7627332210540771 -0.44659221172332764
v 1.2200106382369995 1.760246992111206 -0.4358685612678528
v 1.2200106382369995 1.760246992111206 -0.4358685612678528
v 1.292831301689148 1.7579472064971924 -0.4259486496448517
v 1.292831301689148 1.7579472064971924 -0.4259486496448517
v 1.3430901765823364 1.7563599348068237 -0.4191022217273712
v 1.3430901765823364 1.7563599348068237 -0.4191022217273712
v 1.3709570169448853 1.7554798126220703 -0.41530609130859375
v 1.3709570169448853 1.7554798126220703 -0.41530609130859375
v 1.382092833518982 1.7551281452178955 -0.41378912329673767
v 1.382092833518982 1.7551281452178955 -0.41378912329673767
v 1.3990709781646729 1.7433974742889404 -0.4114763140678406
v 1.3990709781646729 1.7433974742889404 -0.4114763140678406
v 1.4104819297790527 1.731844186782837 -0.4099218547344208
v 1.4104819297790527 1.731844186782837 -0.4099218547344208
v 1.4220364093780518 1.7146878242492676 -0.40834787487983704
v 1.4220364093780518 1.7146878242492676 -0.40834787487983704
v 1.4280331134796143 1.6976981163024902 -0.4075309932231903
v 1.4280331134796143 1.6976981163024902 -0.4075309932231903
v 1.4338849782943726 1.6863131523132324 -0.40673381090164185
v 1.4338849782943726 1.6863131523132324 -0.40673381090164185
v 1.4400323629379272 1.6637017726898193 -0.40589639544487
v 1.4400323629379272 1.6637017726898193 -0.40589639544487
v 1.4461829662322998 1.641078233718872 -0.40505853295326233
v 1.4461829662322998 1.641078233718872 -0.40505853295326233
v 1.4470716714859009 1.60735285282135 -0.4049374759197235
v 1.4470716714859009 1.60735285282135 -0.4049374759197235
v 1.4481098651885986 1.5679543018341064 -0.4047960340976715
v 1.4481098651885986 1.5679543018341064 -0.4047960340976715
v 1.4491496086120605 1.5284991264343262 -0.4046544134616852
v 1.4491496086120605 1.5284991264343262 -0.4046544134616852
v 1.449744462966919 1.5059278011322021 -0.40457338094711304
v 1.449744462966919 1.5059278011322021 -0.40457338094711304
v 1.4559144973754883 1.4831998348236084 -0.40373286604881287
v 1.4559144973754883 1.4831998348236084 -0.40373286604881287
v 1.4559144973754883 1.4831998348236084 -0.40373286604881287
v 1.4559144973754883 1.4831998348236084 -0.40373286604881287
v 1.4559144973754883 1.4831998348236084 -0.40373286604881287
v 1.4685662984848022 1.4263912439346313 -0.40200939774513245
v 1.4685662984848022 1.4263912439346313 -0.40200939774513245
v 1.4752024412155151 1.3866246938705444 -0.4011054039001465
v 1.4752024412155151 1.3866246938705444 -0.4011054039001465
v 1.4872734546661377 1.352365255355835 -0.399461030960083
v 1.4872734546661377 1.352365255355835 -0.399461030960083
v 1.488038420677185 1.3239915370941162 -0.3993568420410156
v 1.4884977340698242 1.3069533109664917 -0.39929425716400146
v 1.4884977340698242 1.3069533109664917 -0.39929425716400146
v 1.4891107082366943 1.2842192649841309 -0.39921078085899353
v 1.4891107082366943 1.2842192649841309 -0.39921078085899353
v 1.489724040031433 1.2614665031433105 -0.39912721514701843
v 1.489724040031433 1.2614665031433105 -0.39912721514701843
v 1.4738649129867554 1.2276101112365723 -0.40128758549690247
v 1.4738649129867554 1.2276101112365723 -0.40128758549690247
v 1.4522181749343872 1.1994907855987549 -0.40423640608787537
v 1.4522181749343872 1.1994907855987549 -0.40423640608787537
v 1.435989499092102 1.1769323348999023 -0.4064471423625946
v 1.435989499092102 1.1769323348999023 -0.4064471423625946
v 1.4195867776870728 1.1600587368011475 -0.40868157148361206
v 1.4195867776870728 1.1600587368011475 -0.40868157148361206
v 1.4195867776870728 1.1600587368011475 -0.40868157148361206
v 1.4031600952148438 1.143160343170166 -0.41091927886009216
v 1.4031600952148438 1.143160343170166 -0.41091927886009216
v 1.392195463180542 1.1318808794021606 -0.4124129116535187
v 1.392195463180542 1.1318808794021606 -0.4124129116535187
v 1.3810770511627197 1.1263257265090942 -0.41392749547958374
v 1.3810770511627197 1.1263257265090942 -0.41392749547958374
v 1.3699501752853394 1.1207664012908936 -0.4154432415962219
v 1.3699501752853394 1.1207664012908936 -0.4154432415962219
v 1.3534538745880127 1.1038051843643188 -0.4176904261112213
v 1.3534538745880127 1.1038051843643188 -0.4176904261112213
v 1.3312829732894897 1.0869022607803345 -0.42071062326431274
v 1.3312829732894897 1.0869022607803345 -0.42071062326431274
v 1.3090730905532837 1.069969654083252 -0.4237361550331116
v 1.3090730905532837 1.069969654083252 -0.4237361550331116
v 1.2923563718795776 1.058691143989563 -0.42601338028907776
v 1.2866902351379395 1.0587706565856934 -0.4267852306365967
v 1.2866902351379395 1.0587706565856934 -0.4267852306365967
v 1.2644041776657104 1.0417851209640503 -0.42982110381126404
v 1.2644041776657104 1.0417851209640503 -0.42982110381126404
v 1.236266016960144 1.0306211709976196 -0.43365418910980225
v 1.236266016960144 1.0306211709976196 -0.43365418910980225
v 1.20845365524292 1.0020833015441895 -0.4374428987503052
v 1.20845365524292 1.0020833015441895 -0.4374428987503052
v 1.197184681892395 0.9964381456375122 -0.43897801637649536
v 1.197184681892395 0.9964381456375122 -0.43897801637649536
v 1.197184681892395 0.9964381456375122 -0.43897801637649536
v 1.1689127683639526 0.9852039217948914 -0.44282931089401245
v 1.1689127683639526 0.9852039217948914 -0.44282931089401245
v 1.151780128479004 0.9854120016098022 -0.44516319036483765
v 1.151780128479004 0.9854120016098022 -0.44516319036483765
v 1.140350341796875 0.9855507612228394 -0.4467201828956604
v 1.129031777381897 0.9798876643180847 -0.4482620358467102
v 1.129031777381897 0.9798876643180847 -0.4482620358467102
v 1.1005243062973022 0.9744238257408142 -0.45214542746543884
v 1.1005243062973022 0.9744238257408142 -0.45214542746543884
v 1.0663427114486694 0.963203489780426 -0.45680177211761475
v 1.0663427114486694 0.963203489780426 -0.45680177211761475
v 1.0549695491790771 0.9575186967849731 -0.4583510756492615
v 1.0549695491790771 0.9575186967849731 -0.4583510756492615
v 1.043478012084961 0.9576499462127686 -0.45991650223731995
v 1.0377297401428223 0.9577155709266663 -0.46069952845573425
v 1.0319799184799194 0.957781195640564 -0.46148282289505005
v 1.043478012084961 0.9576499462127686 -0.45991650223731995
v 1.043478012084961 0.9576499462127686 -0.45991650223731995
v 1.0664544105529785 0.9573875665664673 -0.456786572933197
v 1.0664544105529785 0.9573875665664673 -0.456786572933197
v 1.1065996885299683 0.9569292068481445 -0.45131781697273254
v 1.1065996885299683 0.9569292068481445 -0.45131781697273254
v 1.1580971479415894 0.9563411474227905 -0.44430264830589294
v 1.1580971479415894 0.9563411474227905 -0.44430264830589294
v 1.2151612043380737 0.9556896090507507 -0.4365291893482208
v 1.2151612043380737 0.9556896090507507 -0.4365291893482208
v 1.260695219039917 0.955169677734375 -0.430326372385025
v 1.260695219039917 0.955169677734375 -0.430326372385025
v 1.3174668550491333 0.9545214772224426 -0.42259272933006287
v 1.3174668550491333 0.9545214772224426 -0.42259272933006287
v 1.3627679347991943 0.954004168510437 -0.41642165184020996
v 1.3627679347991943 0.954004168510437 -0.41642165184020996
v 1.396821141242981 0.9478474855422974 -0.41178280115127563
v 1.396821141242981 0.9478474855422974 -0.41178280115127563
v 1.419543981552124 0.9418254494667053 -0.40868738293647766
v 1.419543981552124 0.9418254494667053 -0.40868738293647766
v 1.419543981552124 0.9418254494667053 -0.40868738293647766
v 1.44209623336792 0.9415745139122009 -0.4056152403354645
v 1.44209623336792 0.9415745139122009 -0.4056152403354645
v 1.453513503074646 0.9356853365898132 -0.4040599465370178
v 1.4536641836166382 0.9299203157424927 -0.4040394127368927
v 1.4592962265014648 0.9298592805862427 -0.40327221155166626
v 1.4708603620529175 0.9182084798812866 -0.4016968905925751
v 1.4708603620529175 0.9182084798812866 -0.4016968905925751
v 1.4824227094650269 0.9065595269203186 -0.4001218378543854
v 1.4824227094650269 0.9065595269203186 -0.4001218378543854
v 1.4996074438095093 0.8948562741279602 -0.3977808654308319
v 1.4996074438095093 0.8948562741279602 -0.3977808654308319
v 1.5055420398712158 0.8832669258117676 -0.3969724178314209
v 1.5055420398712158 0.8832669258117676 -0.3969724178314209
v 1.5228769779205322 0.8658021092414856 -0.3946110010147095
v 1.5228769779205322 0.8658021092414856 -0.3946110010147095
v 1.534590482711792 0.8483907580375671 -0.3930153250694275
v 1.534590482711792 0.8483907580375671 -0.3930153250694275
v 1.5463045835494995 0.830978512763977 -0.39141958951950073
v 1.5463045835494995 0.830978512763977 -0.39141958951950073
v 1.5580192804336548 0.8135652542114258 -0.3898237645626068
v 1.5580192804336548 0.8135652542114258 -0.3898237645626068
v 1.5580192804336548 0.8135652542114258 -0.3898237645626068
v 1.5698974132537842 0.7903736233711243 -0.38820570707321167
v 1.5698974132537842 0.7903736233711243 -0.38820570707321167
v 1.5758376121520996 0.7787755131721497 -0.3873964846134186
v 1.5758376121520996 0.7787755131721497 -0.3873964846134186
v 1.5880497694015503 0.7440067529678345 -0.3857329189777374
v 1.5880497694015503 0.7440067529678345 -0.3857329189777374
v 1.5888737440109253 0.7150657176971436 -0.385620653629303
v 1.5888737440109253 0.7150657176971436 -0.385620653629303
v 1.6068837642669678 0.6744233965873718 -0.3831672668457031
v 1.6068837642669678 0.6744233965873718 -0.3831672668457031
v 1.6133360862731934 0.6454018950462341 -0.3822883069515228
v 1.6133360862731934 0.6454018950462341 -0.3822883069515228
v 1.6196250915527344 0.6221653819084167 -0.38143160939216614
v 1.6196250915527344 0.6221653819084167 -0.38143160939216614
v 1.6260864734649658 0.5931051969528198 -0.38055142760276794
v 1.6260864734649658 0.5931051969528198 -0.38055142760276794
v 1.6267626285552979 0.5698492527008057 -0.3804593086242676
v 1.6267626285552979 0.5698492527008057 -0.3804593086242676
v 1.6276086568832397 0.5407520532608032 -0.38034406304359436
v 1.6276086568832397 0.5407520532608032 -0.38034406304359436
v 1.6286249160766602 0.5057954788208008 -0.38020560145378113
v 1.6286249160766602 0.5057954788208008 -0.38020560145378113
v 1.6286249160766602 0.5057954788208008 -0.38020560145378113
v 1.6301518678665161 0.45327869057655334 -0.3799976110458374
v 1.6301518678665161 0.45327869057655334 -0.3799976110458374
v 1.6308314800262451 0.42990627884864807 -0.3799050450325012
v 1.6308314800262451 0.42990627884864807 -0.3799050450325012
v 1.6260433197021484 0.40064913034439087 -0.38055726885795593
v 1.6260433197021484 0.40064913034439087 -0.38055726885795593
v 1.62638258934021 0.3889417350292206 -0.380511075258255
v 1.62638258934021 0.3889417350292206 -0.380511075258255
v 1.6212489604949951 0.3713531196117401 -0.3812103867530823
v 1.6212489604949951 0.3713531196117401 -0.3812103867530823
v 1.6159418821334839 0.35961174964904785 -0.381933331489563
v 1.6159418821334839 0.35961174964904785 -0.381933331489563
v 1.6107993125915527 0.3419955372810364 -0.38263386487960815
v 1.6107993125915527 0.3419955372810364 -0.38263386487960815
v 1.6054843664169312 0.3302343487739563 -0.3833579123020172
v 1.6054843664169312 0.3302343487739563 -0.3833579123020172
v 1.6003328561782837 0.31259047985076904 -0.3840596675872803
v 1.6003328561782837 0.31259047985076904 -0.3840596675872803
v 1.5840212106704712 0.2889898419380188 -0.38628169894218445
v 1.5841869115829468 0.2831067442893982 -0.38625913858413696
v 1.5786879062652588 0.2771904766559601 -0.3870082199573517
v 1.5786879062652588 0.2771904766559601 -0.3870082199573517
v 1.5786879062652588 0.2771904766559601 -0.3870082199573517
v 1.5621745586395264 0.259424090385437 -0.3892577290534973
v 1.5511521100997925 0.2475651353597641 -0.39075925946235657
v 1.5511521100997925 0.2475651353597641 -0.39075925946235657
v 1.5401185750961304 0.23569439351558685 -0.3922622799873352
v 1.5401185750961304 0.23569439351558685 -0.3922622799873352
v 1.5290740728378296 0.22381184995174408 -0.3937667906284332
v 1.5290740728378296 0.22381184995174408 -0.3937667906284332
v 1.5180187225341797 0.21191750466823578 -0.395272821187973
v 1.5180187225341797 0.21191750466823578 -0.395272821187973
v 1.5069522857666016 0.20001131296157837 -0.3967803120613098
v 1.5069522857666016 0.20001131296157837 -0.3967803120613098
v 1.4958747625350952 0.18809327483177185 -0.3982893228530884
v 1.4958747625350952 0.18809327483177185 -0.3982893228530884
v 1.479082465171814 0.17611677944660187 -0.4005768597126007
v 1.479082465171814 0.17611677944660187 -0.4005768597126007
v 1.4511491060256958 0.1521676927804947 -0.40438205003738403
v 1.4511491060256958 0.1521676927804947 -0.40438205003738403
v 1.428575873374939 0.1400948315858841 -0.40745705366134644
v 1.428575873374939 0.1400948315858841 -0.40745705366134644
v 1.4002354145050049 0.12794925272464752 -0.4113176763057709
v 1.4002354145050049 0.12794925272464752 -0.4113176763057709
v 1.3775832653045654 0.11583650857210159 -0.41440343856811523
v 1.3775832653045654 0.11583650857210159 -0.41440343856811523
v 1.3775832653045654 0.11583650857210159 -0.41440343856811523
v 1.3604987859725952 0.10971657931804657 -0.41673076152801514
v 1.3604987859725952 0.10971657931804657 -0.41673076152801514
v 1.349288821220398 0.097689688205719 -0.41825780272483826
v 1.349288821220398 0.097689688205719 -0.41825780272483826
v 1.3379263877868652 0.09161266684532166 -0.419805645942688
v 1.3379263877868652 0.09161266684532166 -0.419805645942688
v 1.3151744604110718 0.07944422960281372 -0.42290499806404114
v 1.3151744604110718 0.07944422960281372 -0.42290499806404114
v 1.2981555461883545 0.06731921434402466 -0.42522338032722473
v 1.2981555461883545 0.06731921434402466 -0.42522338032722473
v 1.2752044200897217 0.06109185144305229 -0.42834988236427307
v 1.2752044200897217 0.06109185144305229 -0.42834988236427307
v 1.2523545026779175 0.04887337237596512 -0.4314625859260559
v 1.2523545026779175 0.04887337237596512 -0.4314625859260559
v 1.2292076349258423 0.04861147701740265 -0.43461573123931885
v 1.2292076349258423 0.04861147701740265 -0.43461573123931885
v 1.1890143156051636 0.030168170109391212 -0.44009098410606384
v 1.1890143156051636 0.030168170109391212 -0.44009098410606384
v 1.171720266342163 0.023963304236531258 -0.44244685769081116
v 1.171720266342163 0.023963304236531258 -0.44244685769081116
v 1.1426525115966797 0.023616958409547806 -0.4464065730571747
v 1.1426525115966797 0.023616958409547806 -0.4464065730571747
v 1.1311339139938354 0.01747089996933937 -0.44797569513320923
v 1.1311339139938354 0.01747089996933937 -0.44797569513320923
v 1.1137794256210327 0.01124877855181694 -0.45033976435661316
v 1.102121114730835 0.011106365360319614 -0.45192790031433105
v 1.102121114730835 0.011106365360319614 -0.45192790031433105
v 1.0905721187591553 0.004947748966515064 -0.4535011649131775
v 1.0905721187591553 0.004947748966515064 -0.4535011649131775
v 1.0614897012710571 -0.001435109763406217 -0.457462877035141
v 1.0614897012710571 -0.001435109763406217 -0.457462877035141
v 1.0381001234054565 -0.0017278605373576283 -0.4606490731239319
v 1.0381001234054565 -0.0017278605373576283 -0.4606490731239319
v 1.0146833658218384 -0.002020953455939889 -0.46383902430534363
v 1.0146833658218384 -0.002020953455939889 -0.46383902430534363
v 1.0029646158218384 -0.0021676283795386553 -0.4654353857040405
v 1.0029646158218384 -0.0021676283795386553 -0.4654353857040405
v 0.985478937625885 -0.008422458544373512 -0.4678173363208771
v 0.985478937625885 -0.008422458544373512 -0.4678173363208771
v 0.973741888999939 -0.008571128360927105 -0.46941620111465454
v 0.973741888999939 -0.008571128360927105 -0.46941620111465454
v 0.9561234712600708 -0.008794296532869339 -0.4718162715435028
v 0.9561234712600708 -0.008794296532869339 -0.4718162715435028
v 0.938489556312561 -0.009017659351229668 -0.4742184281349182
v 0.938489556312561 -0.009017659351229668 -0.4742184281349182
v 0.938489556312561 -0.009017659351229668 -0.4742184281349182
v 0.9149535298347473 -0.00931578315794468 -0.4774245619773865
v 0.9090652465820312 -0.00939036812633276 -0.4782266914844513
v 0.9090652465820312 -0.00939036812633276 -0.4782266914844513
v 0.8972834348678589 -0.009539605118334293 -0.47983166575431824
v 0.8972834348678589 -0.009539605118334293 -0.47983166575431824
v 0.8854947686195374 -0.009688928723335266 -0.4814375638961792
v 0.8736991882324219 -0.009838339872658253 -0.48304441571235657
v 0.8736991882324219 -0.009838339872658253 -0.48304441571235657
v 0.8677058815956116 -0.00386057049036026 -0.4838608205318451
v 0.8617120981216431 0.0021176710724830627 -0.4846773147583008
v 0.8617120981216431 0.0021176710724830627 -0.4846773147583008
v 0.8499051332473755 0.001971666468307376 -0.4862857162952423
v 0.8439990282058716 0.0018986320355907083 -0.48709025979042053
v 0.8439990282058716 0.0018986320355907083 -0.48709025979042053
v 0.8320925235748291 0.007807786576449871 -0.48871222138404846
v 0.8320925235748291 0.007807786576449871 -0.48871222138404846
v 0.8320925235748291 0.007807786576449871 -0.48871222138404846
v 0.8201815485954285 0.01371914241462946 -0.49033477902412415
v 0.8142680525779724 0.013647792860865593 -0.49114033579826355
v 0.8082661628723145 0.019632698968052864 -0.4919579327106476
v 0.8023498058319092 0.01956220529973507 -0.492763876914978
v 0.8023498058319092 0.01956220529973507 -0.492763876914978
v 0.790342390537262 0.03153518959879875 -0.4943995773792267
v 0.7844220399856567 0.03146642819046974 -0.4952060580253601
v 0.7843379378318787 0.037522394210100174 -0.495217502117157
v 0.7784165143966675 0.0374545082449913 -0.49602416157722473
v 0.772493302822113 0.03738659992814064 -0.4968310296535492
v 0.7665684223175049 0.037318672984838486 -0.49763813614845276
l 677 678 679 680 681 682 683 684 685 686 687 688 689 690 691 692 693 694 695 696 697 698 699 700 701 702 703 704 705 706 707 708 709 710 711 712 713 714 715 716 717 718 719 720 721 722 723 724 725 726 727 728 729 730 731 732 733 734 735 736 737 738 739 740 741 742 743 744 745 746 747 748 749 750 751 752 753 754 755 756 757 758 759 760 761 762 763 764 765 766 767 768 769 770 771 772 773 774 775 776 777 778 779 780 781 782 783 784 785 786 787 788 789 790 791 792 793 794 795 796 797 798 799 800 801 802 803 804 805 806 807 808 809 810 811 812 813 814 815 816 817 818 819 820 821 822 823 824 825 826 827 828 829 830 831 832 833 834 835 836 837 838 839 840 841 842 843 844 845 846 847 848 849 850 851 852 853 854 855 856 857 858 859 860 861 862 863 864 865 866 867 868 869 870 871 872 873 874 875 876 877 878 879 880 881 882 883 884 885 886 887 888 889 890 891 892 893 894 895 896 897 898 899 900 901 902 903 904 905 906 907 908 909 910 911 912 913 914 915 916 917 918 919 920 921 922 923 924 925 926 927 928 929 930 931 932 933 934 935 936 937 938 939 940 941 942 943 944 945 946 947 948 949 950 951 952 953 954 955 956 957 958 959 960 961 962 963 964 965 966 967 968 969 970 971 972 973 974 975 976 977 978 979 980 981 982 983 984 985 986 987 988 989 990 991 992 993 994 995 996 997 998 999 1000 1001 1002 1003 1004 1005 1006 1007 1008 1009 1010 1011 1012 1013 1014 1015 1016 1017 1018 1019 1020 1021 1022 1023 1024 1025 1026 1027 1028 1029 1030 1031 1032 1033 1034 1035 1036 1037 1038 1039 1040 1041 1042 1043 1044 1045 1046 1047 1048 1049 1050 1051 1052 1053 1054 1055 1056 1057 1058 1059 1060 1061 1062 1063 1064 1065 1066 1067 1068 1069 1070 1071 1072 
o line
v 1.016361951828003 0.041656069457530975 2.129321336746216
v 1.016361951828003 0.041656069457530975 2.129321336746216
v 1.016361951828003 0.041656069457530975 2.129321336746216
v 1.016361951828003 0.041656069457530975 2.129321336746216
v 1.0021953582763672 0.04086969420313835 2.1243960857391357
v 1.0021953582763672 0.04086969420313835 2.1243960857391357
v 0.9822801947593689 0.039764225482940674 2.1174724102020264
v 0.9822801947593689 0.039764225482940674 2.1174724102020264
v 0.9594022631645203 0.0384943000972271 2.1095187664031982
v 0.9594022631645203 0.0384943000972271 2.1095187664031982
v 0.9421607851982117 0.03753724321722984 2.1035244464874268
v 0.9421607851982117 0.03753724321722984 2.1035244464874268
v 0.9248476624488831 0.03657621145248413 2.0975053310394287
v 0.9248476624488831 0.03657621145248413 2.0975053310394287
v 0.9103650450706482 0.03577229380607605 2.092470407485962
v 0.9103650450706482 0.03577229380607605 2.092470407485962
v 0.8958320021629333 0.03496558591723442 2.0874178409576416
v 0.8958320021629333 0.03496558591723442 2.0874178409576416
v 0.8783255815505981 0.03399382159113884 2.081331491470337
v 0.8783255815505981 0.03399382159113884 2.081331491470337
v 0.8666139841079712 0.03334372118115425 2.0772597789764404
v 0.8666139841079712 0.03334372118115425 2.0772597789764404
v 0.8666139841079712 0.03334372118115425 2.0772597789764404
v 0.8460397720336914 0.03220167011022568 2.0701069831848145
v 0.8460397720336914 0.03220167011022568 2.0701069831848145
v 0.834237813949585 0.03154655918478966 2.0660037994384766
v 0.834237813949585 0.03154655918478966 2.0660037994384766
v 0.8194388151168823 0.030725080519914627 2.060858964920044
v 0.8194388151168823 0.030725080519914627 2.060858964920044
v 0.8016113042831421 0.029735496267676353 2.0546610355377197
v 0.8016113042831421 0.029735496267676353 2.0546610355377197
v 0.7837085127830505 0.028741730377078056 2.0484368801116943
v 0.7837085127830505 0.028741730377078056 2.0484368801116943
v 0.7687315940856934 0.027910377830266953 2.0432300567626953
v 0.7687315940856934 0.027910377830266953 2.0432300567626953
v 0.750765323638916 0.02359810285270214 2.0369837284088135
v 0.750765323638916 0.02359810285270214 2.0369837284088135
v 0.7327190637588501 0.019266614690423012 2.030709743499756
v 0.7327190637588501 0.019266614690423012 2.030709743499756
v 0.7206678986549377 0.015260128304362297 2.026520013809204
v 0.7145922183990479 0.01491578295826912 2.0244078636169434
v 0.7145922183990479 0.01491578295826912 2.0244078636169434
v 0.7024149298667908 0.014225621707737446 2.020174264907837
v 0.7024149298667908 0.014225621707737446 2.020174264907837
v 0.6902732849121094 0.010196758434176445 2.0159530639648438
v 0.6902732849121094 0.010196758434176445 2.0159530639648438
v 0.6902732849121094 0.010196758434176445 2.0159530639648438
l 1073 1074 1075 1076 1077 1078 1079 1080 1081 1082 1083 1084 1085 1086 1087 1088 1089 1090 1091 1092 1093 1094 1095 1096 1097 1098 1099 1100 1101 1102 1103 1104 1105 1106 1107 1108 1109 1110 1111 1112 1113 1114 1115 1116 1117 1118 1119 
o line
v 0.8790114521980286 0.02264292910695076 2.999163866043091
v 0.8790114521980286 0.02264292910695076 2.999163866043091
v 0.8790114521980286 0.02264292910695076 2.999163866043091
v 0.8790114521980286 0.02264292910695076 2.999163866043091
v 0.8734772801399231 0.019785184413194656 2.9967265129089355
v 0.8734772801399231 0.019785184413194656 2.9967265129089355
v 0.8640865087509155 0.01879367232322693 2.9925901889801025
v 0.8640865087509155 0.01879367232322693 2.9925901889801025
v 0.8565459251403809 0.017997507005929947 2.9892690181732178
v 0.8565459251403809 0.017997507005929947 2.9892690181732178
v 0.8508740663528442 0.01739865355193615 2.9867706298828125
v 0.8508740663528442 0.01739865355193615 2.9867706298828125
v 0.8432896733283997 0.016597863286733627 2.9834301471710205
v 0.8413895964622498 0.016397250816226006 2.982593297958374
v 0.8394879698753357 0.016196470707654953 2.9817557334899902
v 0.8375847935676575 0.01599552482366562 2.980917453765869
v 0.8356800079345703 0.015794411301612854 2.9800784587860107
v 0.8356800079345703 0.015794411301612854 2.9800784587860107
v 0.8318657279014587 0.015391683205962181 2.978398323059082
v 0.8299561738967896 0.015190066769719124 2.977557420730591
v 0.8299561738967896 0.015190066769719124 2.977557420730591
v 0.8261323571205139 0.014786331914365292 2.9758729934692383
v 0.8261323571205139 0.014786331914365292 2.9758729934692383
v 0.8223021030426025 0.014381924644112587 2.9741861820220947
v 0.8203846216201782 0.014179467223584652 2.973341464996338
v 0.8203846216201782 0.014179467223584652 2.973341464996338
v 0.8165448307991028 0.013774046674370766 2.9716501235961914
v 0.8165448307991028 0.013774046674370766 2.9716501235961914
v 0.8126986026763916 0.013367949053645134 2.969956159591675
v 0.8126986026763916 0.013367949053645134 2.969956159591675
v 0.804986834526062 0.012553715147078037 2.966559410095215
v 0.804986834526062 0.012553715147078037 2.966559410095215
v 0.799186110496521 0.01194124948233366 2.9640045166015625
v 0.799186110496521 0.01194124948233366 2.9640045166015625
v 0.7914290428161621 0.011122230440378189 2.960587978363037
v 0.7914290428161621 0.011122230440378189 2.960587978363037
v 0.7816960215568542 0.010094582103192806 2.956300973892212
v 0.7816960215568542 0.010094582103192806 2.956300973892212
v 0.7738800644874573 0.009269348345696926 2.9528584480285645
v 0.7738800644874573 0.009269348345696926 2.9528584480285645
v 0.7660377621650696 0.008441329002380371 2.949404239654541
v 0.7660377621650696 0.008441329002380371 2.949404239654541
v 0.7561975717544556 0.007402367889881134 2.9450700283050537
v 0.7561975717544556 0.007402367889881134 2.9450700283050537
v 0.7561975717544556 0.007402367889881134 2.9450700283050537
v 0.7363919019699097 0.005311212968081236 2.9363465309143066
v 0.7363919019699097 0.005311212968081236 2.9363465309143066
v 0.7263560891151428 0.006601416505873203 2.9319262504577637
v 0.7263560891151428 0.006601416505873203 2.9319262504577637
v 0.7140665650367737 0.014728660695254803 2.926513195037842
v 0.7140665650367737 0.014728660695254803 2.926513195037842
v 0.703874945640564 0.018394475802779198 2.9220242500305176
v 0.703874945640564 0.018394475802779198 2.9220242500305176
v 0.6914187669754028 0.02893584780395031 2.9165377616882324
v 0.6914187669754028 0.02893584780395031 2.9165377616882324
v 0.6769410371780396 0.036963898688554764 2.910161018371582
v 0.6769410371780396 0.036963898688554764 2.910161018371582
v 0.6644988059997559 0.04286513477563858 2.9046807289123535
v 0.6644988059997559 0.04286513477563858 2.9046807289123535
v 0.6498790383338928 0.05096933990716934 2.8982415199279785
v 0.6498790383338928 0.05096933990716934 2.8982415199279785
v 0.6393802165985107 0.05712335556745529 2.8936171531677246
v 0.6393802165985107 0.05712335556745529 2.8936171531677246
v 0.6288421750068665 0.06330040097236633 2.8889756202697754
v 0.6288421750068665 0.06330040097236633 2.8889756202697754
v 0.6202253699302673 0.07444772869348526 2.8851804733276367
v 0.6202253699302673 0.07444772869348526 2.8851804733276367
v 0.6202253699302673 0.07444772869348526 2.8851804733276367
v 0.6073492169380188 0.08764640986919403 2.8795089721679688
v 0.6073492169380188 0.08764640986919403 2.8795089721679688
v 0.596579372882843 0.09868604689836502 2.874765396118164
v 0.596579372882843 0.09868604689836502 2.874765396118164
v 0.5879952311515808 0.10515575855970383 2.8709845542907715
v 0.5879952311515808 0.10515575855970383 2.8709845542907715
v 0.5770450830459595 0.1210426390171051 2.866161346435547
v 0.5770450830459595 0.1210426390171051 2.866161346435547
v 0.5704143047332764 0.132511168718338 2.863240957260132
v 0.5704143047332764 0.132511168718338 2.863240957260132
v 0.5617043375968933 0.14144884049892426 2.8594045639038086
v 0.5617043375968933 0.14144884049892426 2.8594045639038086
v 0.5551563501358032 0.14816798269748688 2.856520414352417
v 0.5551563501358032 0.14816798269748688 2.856520414352417
v 0.5463508367538452 0.15954622626304626 2.852642059326172
v 0.5463508367538452 0.15954622626304626 2.852642059326172
v 0.5439978837966919 0.168988898396492 2.8516056537628174
v 0.5439978837966919 0.168988898396492 2.8516056537628174
v 0.5372036695480347 0.18534311652183533 2.8486130237579346
v 0.5372036695480347 0.18534311652183533 2.8486130237579346
v 0.5347427725791931 0.19958436489105225 2.847529172897339
v 0.5347427725791931 0.19958436489105225 2.847529172897339
v 0.5321245789527893 0.22099904716014862 2.8463759422302246
v 0.5321245789527893 0.22099904716014862 2.8463759422302246
v 0.5321245789527893 0.22099904716014862 2.8463759422302246
v 0.5270516276359558 0.25661158561706543 2.8441414833068848
v 0.5270516276359558 0.25661158561706543 2.8441414833068848
v 0.5243878364562988 0.2803612947463989 2.842968225479126
v 0.5243878364562988 0.2803612947463989 2.842968225479126
v 0.523973286151886 0.29941242933273315 2.842785596847534
v 0.523973286151886 0.29941242933273315 2.842785596847534
v 0.521469235420227 0.3159770369529724 2.8416826725006104
v 0.521469235420227 0.3159770369529724 2.8416826725006104
v 0.5189664363861084 0.33253321051597595 2.840580463409424
v 0.5189664363861084 0.33253321051597595 2.840580463409424
v 0.51646488904953 0.34908100962638855 2.8394784927368164
v 0.51646488904953 0.34908100962638855 2.8394784927368164
v 0.5160572528839111 0.3680483400821686 2.839298963546753
v 0.5160572528839111 0.3680483400821686 2.839298963546753
v 0.5157011151313782 0.38462021946907043 2.839142084121704
v 0.5157011151313782 0.38462021946907043 2.839142084121704
v 0.5152946710586548 0.4035315215587616 2.838963270187378
v 0.5152946710586548 0.4035315215587616 2.838963270187378
v 0.5148382186889648 0.42477113008499146 2.838762044906616
v 0.5148382186889648 0.42477113008499146 2.838762044906616
v 0.5143319368362427 0.44832661747932434 2.8385391235351562
v 0.5143319368362427 0.44832661747932434 2.8385391235351562
v 0.5159598588943481 0.4718480706214905 2.8392560482025146
v 0.5159598588943481 0.4718480706214905 2.8392560482025146
v 0.5159598588943481 0.4718480706214905 2.8392560482025146
v 0.5197108387947083 0.49530500173568726 2.8409082889556885
v 0.5197108387947083 0.49530500173568726 2.8409082889556885
v 0.521530032157898 0.5093384385108948 2.841709613800049
v 0.521530032157898 0.5093384385108948 2.841709613800049
v 0.5275318622589111 0.5256541967391968 2.844353199005127
v 0.5275318622589111 0.5256541967391968 2.844353199005127
v 0.5315026044845581 0.5372710824012756 2.846101999282837
v 0.5315026044845581 0.5372710824012756 2.846101999282837
v 0.5333019495010376 0.5512008666992188 2.8468945026397705
v 0.5333019495010376 0.5512008666992188 2.8468945026397705
v 0.5372554659843445 0.5627558827400208 2.8486359119415283
v 0.5372554659843445 0.5627558827400208 2.8486359119415283
v 0.5453425049781799 0.5765280723571777 2.8521978855133057
v 0.5453425049781799 0.5765280723571777 2.8521978855133057
v 0.5472256541252136 0.5857357382774353 2.85302734375
v 0.5472256541252136 0.5857357382774353 2.85302734375
v 0.5532315373420715 0.5971511602401733 2.855672597885132
v 0.5532315373420715 0.5971511602401733 2.855672597885132
v 0.5571877360343933 0.6062726378440857 2.857415199279785
v 0.5571877360343933 0.6062726378440857 2.857415199279785
v 0.5610798597335815 0.6176677942276001 2.8591294288635254
v 0.5610798597335815 0.6176677942276001 2.8591294288635254
v 0.5610798597335815 0.6176677942276001 2.8591294288635254
v 0.5709022283554077 0.6403070092201233 2.8634557723999023
v 0.5709022283554077 0.6403070092201233 2.8634557723999023
v 0.5828328132629395 0.6581830978393555 2.86871075630188
v 0.5828328132629395 0.6581830978393555 2.86871075630188
v 0.5946276187896729 0.6782090663909912 2.873905658721924
v 0.5946276187896729 0.6782090663909912 2.873905658721924
v 0.604366660118103 0.6959234476089478 2.878195285797119
v 0.604366660118103 0.6959234476089478 2.878195285797119
v 0.6082581877708435 0.7025294303894043 2.8799092769622803
v 0.6082581877708435 0.7025294303894043 2.8799092769622803
v 0.6140498518943787 0.713536262512207 2.882460355758667
v 0.6140498518943787 0.713536262512207 2.882460355758667
v 0.6199390888214111 0.7200109362602234 2.885054349899292
v 0.6199390888214111 0.7200109362602234 2.885054349899292
v 0.6257508993148804 0.7287087440490723 2.8876142501831055
v 0.6257508993148804 0.7287087440490723 2.8876142501831055
v 0.6316034197807312 0.7351394295692444 2.8901917934417725
v 0.6316034197807312 0.7351394295692444 2.8901917934417725
v 0.6393787860870361 0.7436829805374146 2.8936166763305664
v 0.6393787860870361 0.7436829805374146 2.8936166763305664
v 0.6510435342788696 0.7542071342468262 2.898754358291626
v 0.6510435342788696 0.7542071342468262 2.898754358291626
v 0.6607216596603394 0.762559711933136 2.903017282485962
v 0.6607216596603394 0.762559711933136 2.903017282485962
v 0.6607216596603394 0.762559711933136 2.903017282485962
v 0.6819618940353394 0.7768203616142273 2.912372589111328
v 0.6857534050941467 0.7810003161430359 2.9140424728393555
v 0.6857534050941467 0.7810003161430359 2.9140424728393555
v 0.6933780908584595 0.7871358394622803 2.91740083694458
v 0.6933780908584595 0.7871358394622803 2.91740083694458
v 0.6990935802459717 0.7911730408668518 2.9199182987213135
v 0.6990935802459717 0.7911730408668518 2.9199182987213135
v 0.704792857170105 0.7951987981796265 2.922428607940674
v 0.704792857170105 0.7951987981796265 2.922428607940674
v 0.7142115831375122 0.8033405542373657 2.926577091217041
v 0.7142115831375122 0.8033405542373657 2.926577091217041
v 0.7180061936378479 0.8052759170532227 2.928248405456543
v 0.7180061936378479 0.8052759170532227 2.928248405456543
v 0.7293486595153809 0.8110608458518982 2.933244228363037
v 0.7293486595153809 0.8110608458518982 2.933244228363037
v 0.7369439005851746 0.8127265572547913 2.9365897178649902
v 0.7369439005851746 0.8127265572547913 2.9365897178649902
v 0.746418297290802 0.8142585158348083 2.940762758255005
v 0.746418297290802 0.8142585158348083 2.940762758255005
v 0.7577484250068665 0.8156556487083435 2.9457530975341797
v 0.7577484250068665 0.8156556487083435 2.9457530975341797
v 0.7671347856521606 0.8171742558479309 2.949887275695801
v 0.7671347856521606 0.8171742558479309 2.949887275695801
v 0.7671347856521606 0.8171742558479309 2.949887275695801
v 0.7896732687950134 0.8156384229660034 2.9598145484924316
v 0.7896732687950134 0.8156384229660034 2.9598145484924316
v 0.8081425428390503 0.8186482787132263 2.967949390411377
v 0.8081425428390503 0.8186482787132263 2.967949390411377
v 0.8266067504882812 0.8173730373382568 2.9760820865631104
v 0.8266067504882812 0.8173730373382568 2.9760820865631104
v 0.8357081413269043 0.818865180015564 2.980090856552124
v 0.8357081413269043 0.818865180015564 2.980090856552124
v 0.846595048904419 0.8202235102653503 2.9848859310150146
v 0.846595048904419 0.8202235102653503 2.9848859310150146
v 0.853874146938324 0.8197140097618103 2.9880921840667725
v 0.853874146938324 0.8197140097618103 2.9880921840667725
v 0.8593183159828186 0.8193329572677612 2.990489959716797
v 0.8593183159828186 0.8193329572677612 2.990489959716797
v 0.8647494912147522 0.8189528584480286 2.992882251739502
v 0.8647494912147522 0.8189528584480286 2.992882251739502
v 0.8701677918434143 0.8185735940933228 2.9952688217163086
v 0.8701677918434143 0.8185735940933228 2.9952688217163086
v 0.877372145652771 0.818069338798523 2.9984419345855713
v 0.877372145652771 0.818069338798523 2.9984419345855713
v 0.877372145652771 0.818069338798523 2.9984419345855713
v 0.8828392624855042 0.815588116645813 3.000849962234497
v 0.8828392624855042 0.815588116645813 3.000849962234497
v 0.8828392624855042 0.815588116645813 3.000849962234497
v 0.8828392624855042 0.815588116645813 3.000849962234497
v 0.906446099281311 0.8035018444061279 3.0112476348876953
v 0.906446099281311 0.8035018444061279 3.0112476348876953
v 0.9137839674949646 0.796746551990509 3.014479637145996
v 0.9137839674949646 0.796746551990509 3.014479637145996
v 0.922868013381958 0.7898951172828674 3.0184807777404785
v 0.922868013381958 0.7898951172828674 3.0184807777404785
v 0.930080235004425 0.7852658629417419 3.0216574668884277
v 0.930080235004425 0.7852658629417419 3.0216574668884277
v 0.9355176091194153 0.7807592749595642 3.024052381515503
v 0.9355176091194153 0.7807592749595642 3.024052381515503
v 0.9409441351890564 0.7762616276741028 3.026442527770996
v 0.9409441351890564 0.7762616276741028 3.026442527770996
v 0.9500201940536499 0.7673975825309753 3.030440092086792
v 0.9500201940536499 0.7673975825309753 3.030440092086792
v 0.9555866122245789 0.7587634921073914 3.0328917503356934
v 0.9555866122245789 0.7587634921073914 3.0328917503356934
v 0.9593206644058228 0.7523217797279358 3.034536600112915
v 0.9593206644058228 0.7523217797279358 3.034536600112915
v 0.9595741629600525 0.7460784316062927 3.0346481800079346
v 0.9595741629600525 0.7460784316062927 3.0346481800079346
v 0.9595741629600525 0.7460784316062927 3.0346481800079346
v 0.9633899927139282 0.7375634908676147 3.0363287925720215
v 0.9633899927139282 0.7375634908676147 3.0363287925720215
v 0.9653816819190979 0.7312270998954773 3.0372061729431152
v 0.9672026038169861 0.7290558815002441 3.038008213043213
v 0.9672026038169861 0.7290558815002441 3.038008213043213
v 0.9691076874732971 0.7248047590255737 3.0388472080230713
v 0.9691076874732971 0.7248047590255737 3.0388472080230713
v 0.9728298187255859 0.7183889746665955 3.0404868125915527
v 0.9764623641967773 0.7140599489212036 3.042086601257324
v 0.9764623641967773 0.7140599489212036 3.042086601257324
v 0.980176568031311 0.7076569199562073 3.043722629547119
v 0.980176568031311 0.7076569199562073 3.043722629547119
v 0.9820753931999207 0.7034181952476501 3.0445590019226074
v 0.9838869571685791 0.7012603878974915 3.0453569889068604
v 0.9856975078582764 0.6991038918495178 3.046154260635376
v 0.9857839941978455 0.6970252394676208 3.0461924076080322
v 0.9858705401420593 0.6949462294578552 3.0462305545806885
v 0.9876802563667297 0.6927918791770935 3.047027587890625
v 0.9877669215202332 0.6907129287719727 3.0470657348632812
v 0.9879403710365295 0.6865538954734802 3.047142267227173
v 0.9898362159729004 0.6823225617408752 3.0479772090911865
v 0.991557240486145 0.6822517514228821 3.0487353801727295
v 0.9916442632675171 0.6801725625991821 3.0487735271453857
v 0.9917312860488892 0.6780930161476135 3.048811912536621
v 0.9936255216598511 0.6738652586936951 3.0496463775634766
v 0.9937127232551575 0.6717854142189026 3.049684762954712
v 0.9937127232551575 0.6717854142189026 3.049684762954712
v 0.9955189824104309 0.6696393489837646 3.050480365753174
v 0.9955189824104309 0.6696393489837646 3.050480365753174
v 0.9955189824104309 0.6696393489837646 3.050480365753174
v 0.9991282820701599 0.6653510332107544 3.052069902420044
v 1.0009312629699707 0.6632087826728821 3.0528640747070312
v 1.0027332305908203 0.6610678434371948 3.0536577701568604
v 1.004534125328064 0.6589282155036926 3.0544509887695312
v 1.006333827972412 0.6567898392677307 3.055243730545044
v 1.006333827972412 0.6567898392677307 3.055243730545044
v 1.0065101385116577 0.6526351571083069 3.055321455001831
v 1.008309006690979 0.6504989266395569 3.0561137199401855
v 1.0083973407745361 0.6484214663505554 3.056152582168579
v 1.0084855556488037 0.6463436484336853 3.0561914443969727
v 1.0084855556488037 0.6463436484336853 3.0561914443969727
v 1.0085738897323608 0.6442655324935913 3.056230306625366
v 1.0085738897323608 0.6442655324935913 3.056230306625366
v 1.0085738897323608 0.6442655324935913 3.056230306625366
v 1.0085738897323608 0.6442655324935913 3.056230306625366
v 1.0124351978302002 0.633765459060669 3.0579311847686768
v 1.0124351978302002 0.633765459060669 3.0579311847686768
v 1.0142316818237305 0.6316356658935547 3.0587222576141357
v 1.0142316818237305 0.6316356658935547 3.0587222576141357
v 1.0144091844558716 0.6274786591529846 3.058800458908081
v 1.0144091844558716 0.6274786591529846 3.058800458908081
v 1.0162937641143799 0.6232724785804749 3.0596306324005127
v 1.0163826942443848 0.6211934685707092 3.0596697330474854
v 1.0164717435836792 0.6191141605377197 3.059709072113037
v 1.016560673713684 0.6170344352722168 3.0597481727600098
v 1.0182666778564453 0.6169891357421875 3.060499668121338
v 1.0182666778564453 0.6169891357421875 3.060499668121338
v 1.0184448957443237 0.6128302216529846 3.0605781078338623
v 1.0185340642929077 0.6107502579689026 3.060617446899414
v 1.0185340642929077 0.6107502579689026 3.060617446899414
v 1.0185340642929077 0.6107502579689026 3.060617446899414
v 1.0185340642929077 0.6107502579689026 3.060617446899414
v 1.0185340642929077 0.6107502579689026 3.060617446899414
l 1120 1121 1122 1123 1124 1125 1126 1127 1128 1129 1130 1131 1132 1133 1134 1135 1136 1137 1138 1139 1140 1141 1142 1143 1144 1145 1146 1147 1148 1149 1150 1151 1152 1153 1154 1155 1156 1157 1158 1159 1160 1161 1162 1163 1164 1165 1166 1167 1168 1169 1170 1171 1172 1173 1174 1175 1176 1177 1178 1179 1180 1181 1182 1183 1184 1185 1186 1187 1188 1189 1190 1191 1192 1193 1194 1195 1196 1197 1198 1199 1200 1201 1202 1203 1204 1205 1206 1207 1208 1209 1210 1211 1212 1213 1214 1215 1216 1217 1218 1219 1220 1221 1222 1223 1224 1225 1226 1227 1228 1229 1230 1231 1232 1233 1234 1235 1236 1237 1238 1239 1240 1241 1242 1243 1244 1245 1246 1247 1248 1249 1250 1251 1252 1253 1254 1255 1256 1257 1258 1259 1260 1261 1262 1263 1264 1265 1266 1267 1268 1269 1270 1271 1272 1273 1274 1275 1276 1277 1278 1279 1280 1281 1282 1283 1284 1285 1286 1287 1288 1289 1290 1291 1292 1293 1294 1295 1296 1297 1298 1299 1300 1301 1302 1303 1304 1305 1306 1307 1308 1309 1310 1311 1312 1313 1314 1315 1316 1317 1318 1319 1320 1321 1322 1323 1324 1325 1326 1327 1328 1329 1330 1331 1332 1333 1334 1335 1336 1337 1338 1339 1340 1341 1342 1343 1344 1345 1346 1347 1348 1349 1350 1351 1352 1353 1354 1355 1356 1357 1358 1359 1360 1361 1362 1363 1364 1365 1366 1367 1368 1369 1370 1371 1372 1373 1374 1375 1376 1377 1378 1379 1380 1381 1382 1383 1384 1385 1386 1387 1388 1389 1390 1391 1392 1393 1394 1395 1396 1397 1398 1399 1400 1401 1402 1403 1404 1405 1406 1407 1408 1409 1410 1411 1412 1413 1414 1415 1416 1417 1418 
